{
    "_id": "0c9Np7Yq5JSxZ6Tb",
    "data": {
        "boosts": {
            "0": {
                "value": [
                    "dex",
                    "int"
                ]
            },
            "1": {
                "value": [
                    "cha",
                    "con",
                    "dex",
                    "int",
                    "str",
                    "wis"
                ]
            }
        },
        "description": {
            "value": "<p><strong>Prerequisite</strong>: Region - Impossible Lands</p>\n<hr />\n<p>Your dedication to the scientific inquiry of your native Alkenstar provides great insight into mechanical and chemical innovation.</p>\n<p>Choose two ability boosts. One must be to <strong>Dexterity</strong> or <strong>Intelligence</strong>, and one is a free ability boost.</p>\n<p>You're trained in the Crafting skill and the Engineering Lore skill. You gain the @Compendium[pf2e.feats-srd.Alchemical Crafting]{Alchemical Crafting} skill feat.</p>"
        },
        "items": {
            "3pqt3": {
                "id": "is3Oz9wt11lNq62K",
                "img": "systems/pf2e/icons/features/feats/feats.webp",
                "level": "1",
                "name": "Alchemical Crafting",
                "pack": "pf2e.feats-srd"
            }
        },
        "rules": [],
        "source": {
            "value": "Pathfinder Lost Omens: World Guide"
        },
        "trainedLore": "Engineering Lore",
        "trainedSkills": {
            "value": [
                "cra"
            ]
        },
        "traits": {
            "custom": "",
            "rarity": {
                "value": "common"
            },
            "value": []
        }
    },
    "effects": [],
    "flags": {},
    "img": "systems/pf2e/icons/default-icons/background.svg",
    "name": "Alkenstar Tinker",
    "type": "background"
}
