{
    "_id": "KC5oI1bs6Wx8h91u",
    "data": {
        "boosts": {
            "0": {
                "value": [
                    "dex",
                    "wis"
                ]
            },
            "1": {
                "value": [
                    "cha",
                    "con",
                    "dex",
                    "int",
                    "str",
                    "wis"
                ]
            }
        },
        "description": {
            "value": "<p>While your life may have taken some twists and turns in the intervening years, you were once deputized as the lawful protector of a community. While the role was temporary and you've since turned in your badge, that responsibility shaped you. Whenever a community is in trouble, and the sheriff is nowhere to be found, residents call on you to capture a criminal, rescue the mayor's offspring from bandits, or go toe to toe with outlaws.</p>\n<p>Choose two ability boosts. One must be to <strong>Dexterity</strong> or <strong>Wisdom</strong>, and one is a free ability boost.</p>\n<p>You're trained in the Survival skill and the Hunting Lore skill. You gain the @Compendium[pf2e.feats-srd.Experienced Tracker]{Experienced Tracker} skill feat.</p>"
        },
        "items": {
            "02x6c": {
                "id": "urQZwmzg2kS53vd5",
                "img": "systems/pf2e/icons/features/feats/feats.webp",
                "level": 1,
                "name": "Experienced Tracker",
                "pack": "pf2e.feats-srd"
            }
        },
        "rules": [],
        "source": {
            "value": ""
        },
        "trainedLore": "Hunting",
        "trainedSkills": {
            "custom": "",
            "value": [
                "sur"
            ]
        },
        "traits": {
            "custom": "",
            "rarity": {
                "value": "common"
            },
            "value": []
        }
    },
    "effects": [],
    "flags": {},
    "img": "systems/pf2e/icons/default-icons/background.svg",
    "name": "Deputy",
    "type": "background"
}
