{
    "_id": "bnmfBLXOBd3ah6GK",
    "data": {
        "baseItem": null,
        "brokenThreshold": {
            "value": 0
        },
        "bulkCapacity": {
            "value": ""
        },
        "collapsed": {
            "value": false
        },
        "containerId": {
            "value": ""
        },
        "description": {
            "value": "<p>These brass goggles are engraved with flame patterns and have thick, heavy lenses.</p>\n<p>While worn, they give you a +3 item bonus to Crafting checks to Craft alchemical items and a +3 item bonus to attack rolls with alchemical bombs.</p>\n<p>You can also ignore lesser cover when making Strikes with alchemical bombs.</p>\n<hr />\n<p>Automatically applied effects:</p>\n<ul>\n<li>+3 item bonus to Crafting alchemical item</li>\n<li>+3 item bonus to attack rolls with bombs</li>\n</ul>"
        },
        "equipped": {
            "value": false
        },
        "equippedBulk": {
            "value": ""
        },
        "hardness": {
            "value": 0
        },
        "hp": {
            "value": 0
        },
        "identification": {
            "misidentified": {},
            "status": "identified",
            "unidentified": {
                "data": {
                    "description": {
                        "value": ""
                    }
                },
                "img": "",
                "name": ""
            }
        },
        "invested": {
            "value": false
        },
        "level": {
            "value": 17
        },
        "maxHp": {
            "value": 0
        },
        "negateBulk": {
            "value": "0"
        },
        "preciousMaterial": {
            "value": ""
        },
        "preciousMaterialGrade": {
            "value": ""
        },
        "price": {
            "value": "15,000 gp"
        },
        "quantity": {
            "value": 1
        },
        "rules": [
            {
                "key": "FlatModifier",
                "label": "Alchemist Goggles (craft alchemical items)",
                "predicate": {
                    "all": [
                        "alchemical",
                        "action:craft"
                    ]
                },
                "selector": "crafting",
                "type": "item",
                "value": 3
            },
            {
                "key": "FlatModifier",
                "label": "Alchemist Goggles, Major (alchemical bombs)",
                "predicate": {
                    "all": [
                        "alchemical",
                        "bomb"
                    ]
                },
                "selector": "attack",
                "type": "item",
                "value": 3
            }
        ],
        "size": {
            "value": "med"
        },
        "source": {
            "value": "Pathfinder Core Rulebook"
        },
        "stackGroup": {
            "value": ""
        },
        "traits": {
            "custom": "",
            "rarity": {
                "value": "common"
            },
            "value": [
                "invested",
                "magical",
                "transmutation"
            ]
        },
        "usage": {
            "value": "worneyepiece"
        },
        "weight": {
            "value": "-"
        }
    },
    "effects": [],
    "flags": {},
    "img": "systems/pf2e/icons/equipment/worn-items/other-worn-items/alchemist-goggles.webp",
    "name": "Alchemist Goggles (Major)",
    "type": "equipment"
}
