{
    "_id": "63k6WWZstoY33LsH",
    "data": {
        "armor": {
            "value": 2
        },
        "baseItem": null,
        "brokenThreshold": {
            "value": 30
        },
        "bulkCapacity": {
            "value": ""
        },
        "category": "shield",
        "check": {
            "value": 0
        },
        "collapsed": {
            "value": false
        },
        "containerId": {
            "value": null
        },
        "description": {
            "value": "<p>This massive tower shield is painted a cool cyan green and is decorated with an image of Absalom's mother-sphinx emerging from a cresting wave.</p>\n<table class=\"pf2-table\">\n<thead>\n<tr>\n<th>Hardness</th>\n<th>HP</th>\n<th>BT</th>\n</tr>\n</thead>\n<tbody>\n<tr>\n<td>10</td>\n<td>60</td>\n<td>30</td>\n</tr>\n</tbody>\n</table>\n<hr />\n<p><strong>Activate</strong> <span class=\"pf2-icon\">2</span> Command;</p>\n<p><strong>Frequency</strong> once per day;</p>\n<p><strong>Effect</strong> You transform the shield into a 1-foot-thick, 10-foot-by-10-foot stone rampart topped with a battlement and adorned with the flags of Absalom. If any part of the rampart would pass through any creatures or objects, the activation fails. At the center of each 5-foot length of the rampart is an arrow slit. The rampart has AC 10, Hardness 15, and 30 Hit Points. The rampart is immune to critical hits and precision damage. Attacks that would destroy the rampart cause it to instead revert back to its shield form and drop to the ground in an open space below the rampart. When this happens, the shield loses 30 Hit Points. You can Dismiss the activation, causing the wall to revert back to its shield form. The shield then returns secured to your arm if you are adjacent to the rampart, or drops to the ground in an open space if you're not adjacent to the rampart. If neither destroyed nor Dismissed, the rampart reverts back to a shield automatically after 1 hour.</p>"
        },
        "dex": {
            "value": 0
        },
        "equipped": {
            "value": false
        },
        "equippedBulk": {
            "value": ""
        },
        "group": null,
        "hardness": {
            "value": 10
        },
        "hp": {
            "value": 60
        },
        "identification": {
            "misidentified": {},
            "status": "identified",
            "unidentified": {
                "data": {
                    "description": {
                        "value": ""
                    }
                },
                "img": "",
                "name": ""
            }
        },
        "invested": {
            "value": null
        },
        "level": {
            "value": 10
        },
        "maxHp": {
            "value": 60
        },
        "negateBulk": {
            "value": "0"
        },
        "potencyRune": {
            "value": 0
        },
        "preciousMaterial": {
            "value": null
        },
        "preciousMaterialGrade": {
            "value": null
        },
        "price": {
            "value": "1900 gp"
        },
        "propertyRune1": {
            "value": ""
        },
        "propertyRune2": {
            "value": ""
        },
        "propertyRune3": {
            "value": ""
        },
        "propertyRune4": {
            "value": ""
        },
        "quantity": {
            "value": 1
        },
        "resiliencyRune": {
            "value": ""
        },
        "rules": [],
        "size": {
            "value": "med"
        },
        "source": {
            "value": "Pathfinder Lost Omens: The Grand Bazaar"
        },
        "speed": {
            "value": 0
        },
        "stackGroup": {
            "value": ""
        },
        "strength": {
            "value": 0
        },
        "traits": {
            "custom": "",
            "rarity": {
                "value": "uncommon"
            },
            "value": [
                "conjuration",
                "magical"
            ]
        },
        "usage": {
            "value": "held-in-one-hand"
        },
        "weight": {
            "value": "4"
        }
    },
    "effects": [],
    "flags": {},
    "img": "systems/pf2e/icons/default-icons/armor.svg",
    "name": "Rampart Shield",
    "type": "armor"
}
