{
    "_id": "icLG1NjjTowYWg7N",
    "data": {
        "armor": {
            "value": 1
        },
        "baseItem": null,
        "brokenThreshold": {
            "value": 8
        },
        "bulkCapacity": {
            "value": ""
        },
        "category": "shield",
        "check": {
            "value": 0
        },
        "collapsed": {
            "value": false
        },
        "containerId": {
            "value": null
        },
        "description": {
            "value": "<p>Siccatite shields radiate extreme temperatures that protect them from energy damage. A protective coating on the wielder's side of the shield protects them from siccatite's radiant heat or cold but makes the shields bulkier than average.</p>\n<p>Standard‑grade siccatite shields have resistance 10 to the corresponding energy type: fire damage for a hot siccatite shield or cold damage for a cold siccatite shield, as it takes even more extreme temperatures to affect them. They also provide some resistance to opposing temperatures because of their own extreme temperature, which extends to you when you @Compendium[pf2e.actionspf2e.Raise a Shield]{Raise the Shield}. The shield has resistance 5 to the opposing damage type (cold damage for a hot siccatite shield or fire damage for a cold siccatite shield), and while you have a siccatite shield Raised, you gain that resistance to the opposing damage type as well.</p>\n<p><strong>Craft Requirements</strong> siccatite worth at least 50 gp</p>"
        },
        "dex": {
            "value": 0
        },
        "equipped": {
            "value": false
        },
        "equippedBulk": {
            "value": ""
        },
        "group": null,
        "hardness": {
            "value": 4
        },
        "hp": {
            "value": 16
        },
        "identification": {
            "misidentified": {},
            "status": "identified",
            "unidentified": {
                "data": {
                    "description": {
                        "value": ""
                    }
                },
                "img": "",
                "name": ""
            }
        },
        "invested": {
            "value": null
        },
        "level": {
            "value": 8
        },
        "maxHp": {
            "value": 0
        },
        "negateBulk": {
            "value": "0"
        },
        "potencyRune": {
            "value": 0
        },
        "preciousMaterial": {
            "value": null
        },
        "preciousMaterialGrade": {
            "value": null
        },
        "price": {
            "value": "400 gp"
        },
        "propertyRune1": {
            "value": ""
        },
        "propertyRune2": {
            "value": ""
        },
        "propertyRune3": {
            "value": ""
        },
        "propertyRune4": {
            "value": ""
        },
        "quantity": {
            "value": 1
        },
        "resiliencyRune": {
            "value": ""
        },
        "rules": [],
        "size": {
            "value": "med"
        },
        "source": {
            "value": "Pathfinder Lost Omens: The Grand Bazaar"
        },
        "speed": {
            "value": 0
        },
        "stackGroup": {
            "value": ""
        },
        "strength": {
            "value": 0
        },
        "traits": {
            "custom": "",
            "rarity": {
                "value": "rare"
            },
            "value": []
        },
        "usage": {
            "value": "held-in-one-hand"
        },
        "weight": {
            "value": "1"
        }
    },
    "effects": [],
    "flags": {},
    "img": "systems/pf2e/icons/default-icons/armor.svg",
    "name": "Siccatite Buckler (Standard Grade)",
    "type": "armor"
}
