{
    "_id": "fQClrtmAe3AER0w2",
    "data": {
        "attributes": {
            "ac": {
                "value": 22
            },
            "hardness": 12,
            "hasHealth": true,
            "hp": {
                "details": "",
                "max": 50,
                "temp": 0,
                "value": 50
            },
            "stealth": {
                "details": "<p>(Expert)</p>",
                "value": 13
            }
        },
        "creatureType": "",
        "details": {
            "description": "<p>The illusory scene of a furnished study covers the room's actual appearance. It flickers and fades, revealing a scorched and burnt chamber. A moment later, the screams of burning victims fill the room, and blazing skeletal arms reach from the ashes and charred walls to scrape and claw.</p>",
            "disable": "<p>DC 26 Intimidation to command the spirits haunting this room to be silent or DC 23 Religion to exorcise the haunt</p>",
            "isComplex": true,
            "level": {
                "value": 5
            },
            "reset": "<p>8 hours; destroying the tanglebones in area E3 destroys this haunt forever.</p>",
            "routine": "<p>1 Action: If there are no targets within area B18 when the haunt takes its action, it can use its Lure reaction to try to get nearby victims back inside. The haunt manifests several burning skeletal arms that reach up from the ruined floors or out of the burnt walls to claw at every creature in area B18. These creatures must attempt a <span data-pf2-saving-throw=\"reflex\" data-pf2-traits=\"damaging-effect,fire,necromancy,occult\" data-pf2-label=\"Lured to Ashes Fire DC\" data-pf2-dc=\"22\" data-pf2-show-dc=\"gm\">Reflex</span> save (creatures seated on a sofa take a -2 circumstance penalty to this saving throw).</p>\n<div data-visibility=\"gm\"><hr />\n<p><strong>Critical Success</strong> The creature takes no damage.</p>\n<p><strong>Success</strong> The creature takes [[/r {1d8}[fire]]]{1d8 fire damage}.</p>\n<p><strong>Failure</strong> The creature takes [[/r {2d8}[fire]]]{2d8 fire damage} and gains weakness 5 to fire. This weakness persists until the creature is fully healed.</p>\n<p><strong>Critical Failure</strong> As failure, but [[/r {4d8}[fire]]]{4d8 fire damage} and weakness 10 to fire.</p>\n</div>"
        },
        "saves": {
            "fortitude": {
                "saveDetail": "",
                "value": 15
            },
            "reflex": {
                "saveDetail": "",
                "value": 15
            },
            "will": {
                "saveDetail": "",
                "value": 9
            }
        },
        "source": {
            "value": "Pathfinder Adventure: Malevolence"
        },
        "statusEffects": [],
        "traits": {
            "ci": [],
            "di": {
                "custom": "",
                "selected": {},
                "value": [
                    "precision",
                    "critical-hits",
                    "object-immunities"
                ]
            },
            "dr": [],
            "dv": [
                {
                    "label": "Positive",
                    "type": "positive",
                    "value": "5"
                }
            ],
            "rarity": {
                "value": "common"
            },
            "size": {
                "value": "med"
            },
            "traits": {
                "custom": "",
                "value": [
                    "haunt"
                ]
            }
        }
    },
    "effects": [],
    "flags": {},
    "img": "systems/pf2e/icons/default-icons/hazard.svg",
    "items": [
        {
            "_id": "tcBafn7uVyBovL1F",
            "data": {
                "actionCategory": {
                    "value": "offensive"
                },
                "actionType": {
                    "value": "reaction"
                },
                "actions": {
                    "value": null
                },
                "description": {
                    "value": "<p data-visibility=\"gm\"><strong>Trigger</strong> A creature moves more than 5 feet into the room;</p>\n<p><strong>Effect</strong> All creatures in area B18 and all creatures within 10 feet of an open door or window adjacent to area B18 hear a compelling voice inviting them into the room to discuss a future move back to central Cheliax.</p>\n<p>Each creature must attempt a <span data-pf2-check=\"will\" data-pf2-traits=\"auditory,enchantment,linguistic,mental,occult\" data-pf2-label=\"Lure to Ashes DC\" data-pf2-dc=\"22\" data-pf2-show-dc=\"gm\">Will</span> save (creatures outside of area B18 gain a +2 circumstance bonus to this save). On a failure, the creature is compelled to move into area B18 and be seated on one of the sofas.</p>\n<p>Creatures who succeed at the save aren't compelled and see the room as the burnt ruin that it is. The haunt then rolls initiative.</p>"
                },
                "requirements": {
                    "value": ""
                },
                "rules": [],
                "slug": null,
                "source": {
                    "value": ""
                },
                "traits": {
                    "custom": "",
                    "rarity": {
                        "value": "common"
                    },
                    "value": [
                        "mental",
                        "auditory",
                        "enchantment",
                        "linguistic",
                        "occult"
                    ]
                },
                "trigger": {
                    "value": ""
                },
                "weapon": {
                    "value": ""
                }
            },
            "effects": [],
            "flags": {},
            "img": "systems/pf2e/icons/actions/Reaction.webp",
            "name": "Lure",
            "sort": 0,
            "type": "action"
        }
    ],
    "name": "Lured to Ashes",
    "token": {
        "disposition": 0,
        "height": 1,
        "img": "systems/pf2e/icons/default-icons/hazard.svg",
        "name": "Lured to Ashes",
        "width": 1
    },
    "type": "hazard"
}
