{
    "_id": "KiYzBNYqlBwcI11v",
    "description": "Potential illusions drawn randomly from the deck. The card is destroyed on use.",
    "displayRoll": true,
    "flags": {},
    "formula": "1d34",
    "img": "icons/svg/d20-grey.svg",
    "name": "Deck of Illusions Cards",
    "permission": {
        "default": 0
    },
    "replacement": true,
    "results": [
        {
            "_id": "Q5IhsBXIYWRn9zi8",
            "drawn": false,
            "flags": {},
            "img": "icons/svg/d20-black.svg",
            "range": [
                1,
                1
            ],
            "rangeH": 1,
            "rangeL": 1,
            "text": "Iron Golem",
            "type": 0,
            "weight": 1
        },
        {
            "_id": "YKneqnBlHIHS8Ky6",
            "drawn": false,
            "flags": {},
            "img": "icons/svg/d20-black.svg",
            "range": [
                2,
                2
            ],
            "rangeH": 2,
            "rangeL": 2,
            "text": "Centaur",
            "type": 0,
            "weight": 1
        },
        {
            "_id": "4D2g1s8JV9YGQsVj",
            "drawn": false,
            "flags": {},
            "img": "icons/svg/d20-black.svg",
            "range": [
                3,
                3
            ],
            "rangeH": 3,
            "rangeL": 3,
            "text": "Greater Shadow",
            "type": 0,
            "weight": 1
        },
        {
            "_id": "3iiAwD8QTsP1jhhn",
            "drawn": false,
            "flags": {},
            "img": "icons/svg/d20-black.svg",
            "range": [
                4,
                4
            ],
            "rangeH": 4,
            "rangeL": 4,
            "text": "Earth Mephit",
            "type": 0,
            "weight": 1
        },
        {
            "_id": "TSPIExOzQu8ny0TI",
            "drawn": false,
            "flags": {},
            "img": "icons/svg/d20-black.svg",
            "range": [
                5,
                5
            ],
            "rangeH": 5,
            "rangeL": 5,
            "text": "Hill Giant",
            "type": 0,
            "weight": 1
        },
        {
            "_id": "iSQkNfP8nseZnGFr",
            "drawn": false,
            "flags": {},
            "img": "icons/svg/d20-black.svg",
            "range": [
                6,
                6
            ],
            "rangeH": 6,
            "rangeL": 6,
            "text": "Gelatinous Cube",
            "type": 0,
            "weight": 1
        },
        {
            "_id": "uC4VPzqUwqUrloum",
            "drawn": false,
            "flags": {},
            "img": "icons/svg/d20-black.svg",
            "range": [
                7,
                7
            ],
            "rangeH": 7,
            "rangeL": 7,
            "text": "Pixie",
            "type": 0,
            "weight": 1
        },
        {
            "_id": "fnkWGXFUQyU2J8Lz",
            "drawn": false,
            "flags": {},
            "img": "icons/svg/d20-black.svg",
            "range": [
                8,
                8
            ],
            "rangeH": 8,
            "rangeL": 8,
            "text": "Arboreal Warden",
            "type": 0,
            "weight": 1
        },
        {
            "_id": "j9Ik4vZ0hI2ClGbB",
            "drawn": false,
            "flags": {},
            "img": "icons/svg/d20-black.svg",
            "range": [
                9,
                9
            ],
            "rangeH": 9,
            "rangeL": 9,
            "text": "Glabrezu (demon)",
            "type": 0,
            "weight": 1
        },
        {
            "_id": "TLjCFakdGD97QyRI",
            "drawn": false,
            "flags": {},
            "img": "icons/svg/d20-black.svg",
            "range": [
                10,
                10
            ],
            "rangeH": 10,
            "rangeL": 10,
            "text": "Chimera",
            "type": 0,
            "weight": 1
        },
        {
            "_id": "rs0dvFdHzTxch2SW",
            "drawn": false,
            "flags": {},
            "img": "icons/svg/d20-black.svg",
            "range": [
                11,
                11
            ],
            "rangeH": 11,
            "rangeL": 11,
            "text": "Warg",
            "type": 0,
            "weight": 1
        },
        {
            "_id": "ADwQG04sCA9vKgcW",
            "drawn": false,
            "flags": {},
            "img": "icons/svg/d20-black.svg",
            "range": [
                12,
                12
            ],
            "rangeH": 12,
            "rangeL": 12,
            "text": "Troll",
            "type": 0,
            "weight": 1
        },
        {
            "_id": "8quboaFIlmEp317e",
            "drawn": false,
            "flags": {},
            "img": "icons/svg/d20-black.svg",
            "range": [
                13,
                13
            ],
            "rangeH": 13,
            "rangeL": 13,
            "text": "Yeti",
            "type": 0,
            "weight": 1
        },
        {
            "_id": "7sjI7NcUrsuZMHAl",
            "drawn": false,
            "flags": {},
            "img": "icons/svg/d20-black.svg",
            "range": [
                14,
                14
            ],
            "rangeH": 14,
            "rangeL": 14,
            "text": "Harpy",
            "type": 0,
            "weight": 1
        },
        {
            "_id": "n6R8isaB1tp0ap8Q",
            "drawn": false,
            "flags": {},
            "img": "icons/svg/d20-black.svg",
            "range": [
                15,
                15
            ],
            "rangeH": 15,
            "rangeL": 15,
            "text": "Hydra",
            "type": 0,
            "weight": 1
        },
        {
            "_id": "d6tW4DVP0fmzUJFj",
            "drawn": false,
            "flags": {},
            "img": "icons/svg/d20-black.svg",
            "range": [
                16,
                16
            ],
            "rangeH": 16,
            "rangeL": 16,
            "text": "Sphinx",
            "type": 0,
            "weight": 1
        },
        {
            "_id": "SFh1VrvlLwrApYVc",
            "drawn": false,
            "flags": {},
            "img": "icons/svg/d20-black.svg",
            "range": [
                17,
                17
            ],
            "rangeH": 17,
            "rangeL": 17,
            "text": "Red Dragon",
            "type": 0,
            "weight": 1
        },
        {
            "_id": "kSL2ziwHACYJKebE",
            "drawn": false,
            "flags": {},
            "img": "icons/svg/d20-black.svg",
            "range": [
                18,
                18
            ],
            "rangeH": 18,
            "rangeL": 18,
            "text": "Hyaenodon",
            "type": 0,
            "weight": 1
        },
        {
            "_id": "QpPTLumvFh0mH7Dz",
            "drawn": false,
            "flags": {},
            "img": "icons/svg/d20-black.svg",
            "range": [
                19,
                19
            ],
            "rangeH": 19,
            "rangeL": 19,
            "text": "Bugbear",
            "type": 0,
            "weight": 1
        },
        {
            "_id": "D61bMEQ5OrRwNIMG",
            "drawn": false,
            "flags": {},
            "img": "icons/svg/d20-black.svg",
            "range": [
                20,
                20
            ],
            "rangeH": 20,
            "rangeL": 20,
            "text": "Ettin",
            "type": 0,
            "weight": 1
        },
        {
            "_id": "pN45OEsGEnXOIOLo",
            "drawn": false,
            "flags": {},
            "img": "icons/svg/d20-black.svg",
            "range": [
                21,
                21
            ],
            "rangeH": 21,
            "rangeL": 21,
            "text": "Cloud Giant",
            "type": 0,
            "weight": 1
        },
        {
            "_id": "E93bIkmyQmEuVVjY",
            "drawn": false,
            "flags": {},
            "img": "icons/svg/d20-black.svg",
            "range": [
                22,
                22
            ],
            "rangeH": 22,
            "rangeL": 22,
            "text": "Giant Mantis",
            "type": 0,
            "weight": 1
        },
        {
            "_id": "L6dStQYxLzhFql9r",
            "drawn": false,
            "flags": {},
            "img": "icons/svg/d20-black.svg",
            "range": [
                23,
                23
            ],
            "rangeH": 23,
            "rangeL": 23,
            "text": "Mammoth",
            "type": 0,
            "weight": 1
        },
        {
            "_id": "E1BxDAUxhQlwlGBP",
            "drawn": false,
            "flags": {},
            "img": "icons/svg/d20-black.svg",
            "range": [
                24,
                24
            ],
            "rangeH": 24,
            "rangeL": 24,
            "text": "Tyrannosaurus",
            "type": 0,
            "weight": 1
        },
        {
            "_id": "6FUnENBrhKyw4kC2",
            "drawn": false,
            "flags": {},
            "img": "icons/svg/d20-black.svg",
            "range": [
                25,
                25
            ],
            "rangeH": 25,
            "rangeL": 25,
            "text": "Lich",
            "type": 0,
            "weight": 1
        },
        {
            "_id": "N2hfySUDPGYxDWEC",
            "drawn": false,
            "flags": {},
            "img": "icons/svg/d20-black.svg",
            "range": [
                26,
                26
            ],
            "rangeH": 26,
            "rangeL": 26,
            "text": "Dryad Queen",
            "type": 0,
            "weight": 1
        },
        {
            "_id": "TXuTMvbfpbdQo6Sv",
            "drawn": false,
            "flags": {},
            "img": "icons/svg/d20-black.svg",
            "range": [
                27,
                27
            ],
            "rangeH": 27,
            "rangeL": 27,
            "text": "Giant Scorpion",
            "type": 0,
            "weight": 1
        },
        {
            "_id": "ncaRPLopD4AHWL8U",
            "drawn": false,
            "flags": {},
            "img": "icons/svg/d20-black.svg",
            "range": [
                28,
                28
            ],
            "rangeH": 28,
            "rangeL": 28,
            "text": "Troll",
            "type": 0,
            "weight": 1
        },
        {
            "_id": "pDirSXUKu7ykC5f3",
            "drawn": false,
            "flags": {},
            "img": "icons/svg/d20-black.svg",
            "range": [
                29,
                29
            ],
            "rangeH": 29,
            "rangeL": 29,
            "text": "Frost Giant",
            "type": 0,
            "weight": 1
        },
        {
            "_id": "Sb16Vb7t8OjNy9kY",
            "drawn": false,
            "flags": {},
            "img": "icons/svg/d20-black.svg",
            "range": [
                30,
                30
            ],
            "rangeH": 30,
            "rangeL": 30,
            "text": "Boar",
            "type": 0,
            "weight": 1
        },
        {
            "_id": "rbXLYSDAEAq5bfEo",
            "drawn": false,
            "flags": {},
            "img": "icons/svg/d20-black.svg",
            "range": [
                31,
                31
            ],
            "rangeH": 31,
            "rangeL": 31,
            "text": "Medusa",
            "type": 0,
            "weight": 1
        },
        {
            "_id": "tKlyLl4LJ7qEQKFx",
            "drawn": false,
            "flags": {},
            "img": "icons/svg/d20-black.svg",
            "range": [
                32,
                32
            ],
            "rangeH": 32,
            "rangeL": 32,
            "text": "Leaf Leshy",
            "type": 0,
            "weight": 1
        },
        {
            "_id": "8NAIZmnesuxTc7xR",
            "drawn": false,
            "flags": {},
            "img": "icons/svg/d20-black.svg",
            "range": [
                33,
                33
            ],
            "rangeH": 33,
            "rangeL": 33,
            "text": "Deck Activator",
            "type": 0,
            "weight": 1
        },
        {
            "_id": "DQMgh30t3SCGCqje",
            "drawn": false,
            "flags": {},
            "img": "icons/svg/d20-black.svg",
            "range": [
                34,
                34
            ],
            "rangeH": 34,
            "rangeL": 34,
            "text": "Deck Activator's Greatest Fear",
            "type": 0,
            "weight": 1
        }
    ]
}
