{
    "_id": "yRZwPolTnRdnz42V",
    "description": "<p>Many proteans can subject their foes to disorienting alterations perceived in time and space by creating ripples of unstable reality in the environment called warpwaves.</p>\n<p>When a creature fails its saving throw and is affected by a warpwave, roll 1d8 and consult the table below for the specific effect on that creature.</p>\n<p>Unless indicated otherwise, a warpwave effect lasts for [[/br 1d4 #rounds]]{1d4 rounds}, and a new warpwave effect negates any previous warpwave effect already affecting a creature.</p>",
    "displayRoll": false,
    "flags": {},
    "formula": "1d8",
    "img": "icons/svg/d20-grey.svg",
    "name": "Warpwaves",
    "permission": {
        "default": 0
    },
    "replacement": true,
    "results": [
        {
            "_id": "F9BIk39PcQCqvsDx",
            "drawn": false,
            "flags": {},
            "img": "systems/pf2e/icons/conditions/clumsy.webp",
            "range": [
                1,
                1
            ],
            "rangeH": 1,
            "rangeL": 1,
            "text": "@Compendium[pf2e.conditionitems.Clumsy]{Clumsy 2} (@Compendium[pf2e.conditionitems.Clumsy]{Clumsy 3} on a critical failure)",
            "type": 0,
            "weight": 1
        },
        {
            "_id": "cxFL9nfmWweVrJT3",
            "drawn": false,
            "flags": {},
            "img": "systems/pf2e/icons/conditions/confused.webp",
            "range": [
                2,
                2
            ],
            "rangeH": 2,
            "rangeL": 2,
            "text": "@Compendium[pf2e.conditionitems.Confused]{Confused} and gains [[/r 4d6 #temporary Hit Points]] temporary Hit Points",
            "type": 0,
            "weight": 1
        },
        {
            "_id": "fxdfxSHw2CiMFHO4",
            "drawn": false,
            "flags": {},
            "img": "systems/pf2e/icons/conditions/dazzled.webp",
            "range": [
                3,
                3
            ],
            "rangeH": 3,
            "rangeL": 3,
            "text": "@Compendium[pf2e.conditionitems.Dazzled]{Dazzled} (permanent on a critical failure)",
            "type": 0,
            "weight": 1
        },
        {
            "_id": "yS08eN4U6QDmUfM0",
            "drawn": false,
            "flags": {},
            "img": "systems/pf2e/icons/conditions/enfeebled.webp",
            "range": [
                4,
                4
            ],
            "rangeH": 4,
            "rangeL": 4,
            "text": "@Compendium[pf2e.conditionitems.Enfeebled]{Enfeebled 2} (@Compendium[pf2e.conditionitems.Enfeebled]{Enfeebled 3} on a critical failure)",
            "type": 0,
            "weight": 1
        },
        {
            "_id": "BXlAFMAw5UKL8pmx",
            "drawn": false,
            "flags": {},
            "img": "systems/pf2e/icons/conditions/immobilized.webp",
            "range": [
                5,
                5
            ],
            "rangeH": 5,
            "rangeL": 5,
            "text": "@Compendium[pf2e.conditionitems.Immobilized]{Immobilized} by filaments of energy",
            "type": 0,
            "weight": 1
        },
        {
            "_id": "0T5nUDOcoKho9VUN",
            "drawn": false,
            "flags": {},
            "img": "systems/pf2e/icons/conditions/quickened.webp",
            "range": [
                6,
                6
            ],
            "rangeH": 6,
            "rangeL": 6,
            "text": "@Compendium[pf2e.conditionitems.Quickened]{Quickened} (Stride, Strike, or Step only)",
            "type": 0,
            "weight": 1
        },
        {
            "_id": "lze10COuXTyHrPWd",
            "drawn": false,
            "flags": {},
            "img": "systems/pf2e/icons/conditions/slowed.webp",
            "range": [
                7,
                7
            ],
            "rangeH": 7,
            "rangeL": 7,
            "text": "@Compendium[pf2e.conditionitems.Slowed]{Slowed 1}",
            "type": 0,
            "weight": 1
        },
        {
            "_id": "Wh9bjqS7V6XDIVYf",
            "drawn": false,
            "flags": {},
            "img": "systems/pf2e/icons/conditions/stupefied.webp",
            "range": [
                8,
                8
            ],
            "rangeH": 8,
            "rangeL": 8,
            "text": "@Compendium[pf2e.conditionitems.Stupefied]{Stupefied 2} (@Compendium[pf2e.conditionitems.Stupefied]{Stupefied 3} on a critical failure)",
            "type": 0,
            "weight": 1
        }
    ]
}
