{
    "_id": "axCgEgk7n1yXpgdp",
    "data": {
        "attributes": {
            "ac": {
                "value": 0
            },
            "hardness": 0,
            "hasHealth": true,
            "hp": {
                "details": "",
                "max": 10,
                "temp": 0,
                "tempmax": 0,
                "value": 10
            },
            "stealth": {
                "details": "<p>(master)</p>",
                "value": 30
            }
        },
        "creatureType": "",
        "details": {
            "description": "The door slams shut, and poison gas fills the room.",
            "disable": "<p><span data-pf2-check=\"occultism\" data-pf2-traits=\"mechanical,trap\" data-pf2-label=\"Exorcise the Spirits DC\" data-pf2-dc=\"36\" data-pf2-show-dc=\"gm\">Occultism</span> (master) or <span data-pf2-check=\"religion\" data-pf2-traits=\"mechanical,trap\" data-pf2-label=\"Exorcise the Spirits DC\" data-pf2-dc=\"36\" data-pf2-show-dc=\"gm\">Religion</span> (master) to exorcise the spirits</p>",
            "isComplex": false,
            "level": {
                "value": 17
            },
            "reset": "The trap resets after 1 day.",
            "routine": ""
        },
        "saves": {
            "fortitude": {
                "saveDetail": "",
                "value": 0
            },
            "reflex": {
                "saveDetail": "",
                "value": 0
            },
            "will": {
                "saveDetail": "",
                "value": 0
            }
        },
        "source": {
            "value": "Pathfinder #149: Against the Scarlet Triad"
        },
        "statusEffects": [],
        "traits": {
            "ci": [],
            "di": {
                "custom": "",
                "selected": {},
                "value": []
            },
            "dr": [],
            "dv": [],
            "rarity": {
                "value": "common"
            },
            "size": {
                "value": "med"
            },
            "traits": {
                "custom": "",
                "value": [
                    "mechanical",
                    "trap"
                ]
            }
        }
    },
    "effects": [],
    "flags": {},
    "img": "systems/pf2e/icons/default-icons/hazard.svg",
    "items": [
        {
            "_id": "RjIX3v1EU84c920i",
            "data": {
                "actionCategory": {
                    "value": "offensive"
                },
                "actionType": {
                    "value": "reaction"
                },
                "actions": {
                    "value": null
                },
                "description": {
                    "value": "<p data-visibility=\"gm\"><strong>Trigger</strong>: A living creature other than an ooze spends at least 3 rounds in the room;</p>\n<p><strong>Effect</strong>: The trap activates and fills the area with caustic nightmare vapor, exposing all creatures within.</p>"
                },
                "requirements": {
                    "value": ""
                },
                "rules": [],
                "slug": null,
                "source": {
                    "value": ""
                },
                "traits": {
                    "custom": "",
                    "rarity": {
                        "value": "common"
                    },
                    "value": [
                        "conjuration",
                        "occult"
                    ]
                },
                "trigger": {
                    "value": ""
                },
                "weapon": {
                    "value": ""
                }
            },
            "effects": [],
            "flags": {},
            "img": "systems/pf2e/icons/actions/Reaction.webp",
            "name": "Breath Snatcher",
            "sort": 100000,
            "type": "action"
        },
        {
            "_id": "lcdFqkdanjf6Jdom",
            "data": {
                "actionCategory": {
                    "value": "offensive"
                },
                "actionType": {
                    "value": "passive"
                },
                "actions": {
                    "value": null
                },
                "description": {
                    "value": "<p>Oozes are immune to this poison;</p>\n<p><strong>Saving Throw</strong> <span data-pf2-check=\"fortitude\" data-pf2-traits=\"acid,poison\" data-pf2-label=\"Caustic Nightmare Vapor DC\" data-pf2-dc=\"38\" data-pf2-show-dc=\"gm\">Fortitude</span>;</p>\n<div data-visibility=\"gm\">\n<p><strong>Onset</strong> 1 round;</p>\n<p><strong>Maximum Duration</strong> 6 rounds;</p>\n<p><strong>Stage 1</strong> [[/r {4d6}[acid]]]{4d6 acid damage} and @Compendium[pf2e.conditionitems.Confused]{Confused} (1 round);</p>\n<p><strong>Stage 2</strong> [[/r {6d6}[acid]]]{6d6 acid damage}, confused, and @Compendium[pf2e.conditionitems.Flat-Footed]{Flat-Footed} (1 round);</p>\n<p><strong>Stage 3</strong> [[/r {8d6}[acid]]]{8d6 acid damage}, confused, flat-footed, and @Compendium[pf2e.conditionitems.Stupefied]{Stupefied 2} (1 round)</p>\n</div>"
                },
                "requirements": {
                    "value": ""
                },
                "rules": [],
                "slug": null,
                "source": {
                    "value": ""
                },
                "traits": {
                    "custom": "",
                    "rarity": {
                        "value": "common"
                    },
                    "value": [
                        "acid",
                        "poison"
                    ]
                },
                "trigger": {
                    "value": ""
                },
                "weapon": {
                    "value": ""
                }
            },
            "effects": [],
            "flags": {},
            "img": "systems/pf2e/icons/actions/Passive.webp",
            "name": "Caustic Nightmare Vapor",
            "sort": 200000,
            "type": "action"
        }
    ],
    "name": "Caustic Vapor",
    "token": {
        "disposition": 0,
        "height": 1,
        "img": "systems/pf2e/icons/default-icons/hazard.svg",
        "name": "Caustic Vapor",
        "width": 1
    },
    "type": "hazard"
}
