{
    "_id": "tHmyeunsbv4TZAbw",
    "content": "<table class=\"pf2-table\">\n<thead>\n<tr>\n<th>\n<h3><strong>Name</strong></h3>\n</th>\n<th>\n<h3><strong>Crit Effect</strong></h3>\n</th>\n<th>\n<h3><strong>Type</strong></h3>\n</th>\n</tr>\n</thead>\n<tbody>\n<tr>\n<td>Pulled Muscle</td>\n<td>Until healed, you are enfeebled 2.</td>\n<td>\n<h3>Melee</h3>\n</td>\n</tr>\n<tr>\n<td>Awkward Attack</td>\n<td>You are flat-footed until the end of your next turn.</td>\n<td>\n<h3>Ranged</h3>\n</td>\n</tr>\n<tr>\n<td>Bit your Tongue!</td>\n<td>You take 1 persistent bleed damage.</td>\n<td>\n<h3>Unarmed</h3>\n</td>\n</tr>\n<tr>\n<td>Spontaneous Combustion</td>\n<td>You take 2d6 fire damage.</td>\n<td>\n<h3>Spell</h3>\n</td>\n</tr>\n</tbody>\n</table>\n<h3 style=\"text-align: left;\"> </h3>",
    "flags": {},
    "name": "Critical Fumble Deck #17",
    "permission": {
        "default": 0
    }
}
