{
    "_id": "FHnfWQKntBkZJk6G",
    "content": "<table class=\"pf2-table\">\n<thead>\n<tr>\n<th>\n<h3><strong>Name</strong></h3>\n</th>\n<th>\n<h3><strong>Crit Effect</strong></h3>\n</th>\n<th>\n<h3><strong>Type</strong></h3>\n</th>\n</tr>\n</thead>\n<tbody>\n<tr>\n<td>\n<h3>Numbing Blow</h3>\n</td>\n<td>\n<h3>Normal damage. The target is clumsy 1 for 1 minute and must succeed at a Reflex save or drop one item it holds at random.</h3>\n</td>\n<td>\n<h3>Bludgeoning</h3>\n</td>\n</tr>\n<tr>\n<td>\n<h3>Sucking chest Wound</h3>\n</td>\n<td>\n<h3>The target is fatigued.</h3>\n</td>\n<td>\n<h3>Piercing</h3>\n</td>\n</tr>\n<tr>\n<td>Overhand Chop</td>\n<td>1d8 persistent bleed damage.</td>\n<td>\n<h3>Slashing</h3>\n</td>\n</tr>\n<tr>\n<td>Knockback</td>\n<td>Push the target up to 10 feet.</td>\n<td>\n<h3>Bomb or Spell</h3>\n</td>\n</tr>\n</tbody>\n</table>\n<h3 style=\"text-align: left;\"> </h3>",
    "flags": {},
    "name": "Critical Hit Deck #15",
    "permission": {
        "default": 0
    }
}
