{
    "_id": "oAWNluJaMlaGysXA",
    "data": {
        "actionCategory": {
            "value": "offensive"
        },
        "actionType": {
            "value": "reaction"
        },
        "actions": {
            "value": null
        },
        "description": {
            "value": "<p><strong>Frequency</strong> once per day</p>\n<p><strong>Trigger</strong> You are hit with an unarmed strike or a strike with a non-reach melee weapon.</p>\n<hr />\n<p>You break off quills in your attacker's flesh. You deal [[/r {1d8}[piercing]]]{1d8 piercing damage} to the triggering creature (basic Reflex save using your class DC or spell DC, whichever is higher.) On a critical failure, the creature also takes [[/r {1d4}[persistent,bleed]]] @Compendium[pf2e.conditionitems.Persistent Damage]{Persistent Bleed Damage} as your quills hook into its flesh. At 3rd level, and every 2 levels thereafter, this damage increases by 1d8 and the persistent piercing damage increases by 1.</p>\n<p>[[/r ceil(@details.level.value/2)d8 #piercing]]{Levelled} piercing damage</p>\n<p>[[/r 1d4+ceil(@details.level.value/2)-1 #persistent bleed]]{Levelled} @Compendium[pf2e.conditionitems.Persistent Damage]{Persistent Bleed Damage}</p>\n<hr />\n<p><em>Note: +1 bonus from Bristle is not added automatically</em></p>"
        },
        "requirements": {
            "value": ""
        },
        "rules": [],
        "source": {
            "value": "Pathfinder Lost Omens: The Mwangi Expanse"
        },
        "traits": {
            "custom": "",
            "rarity": {
                "value": "common"
            },
            "value": [
                "shisk"
            ]
        },
        "trigger": {
            "value": ""
        },
        "weapon": {
            "value": ""
        }
    },
    "effects": [],
    "flags": {},
    "img": "systems/pf2e/icons/actions/Reaction.webp",
    "name": "Barbed Quills",
    "type": "action"
}
