{
    "_id": "ZJcc7KGOEsYvN6SE",
    "data": {
        "actionCategory": {
            "value": "defensive"
        },
        "actionType": {
            "value": "reaction"
        },
        "actions": {
            "value": null
        },
        "description": {
            "value": "<p><strong>Trigger</strong> A creature within 60 feet would make an attack roll against you;</p>\n<p><strong>Effect</strong> The triggering creature must attempt a Fortitude save.</p>\n<hr />\n<p><strong>Critical Success</strong> The target is unaffected.</p>\n<p><strong>Success</strong> The target is @Compendium[pf2e.conditionitems.Dazzled]{Dazzled} until the end of the current turn.</p>\n<p><strong>Failure</strong> The target is @Compendium[pf2e.conditionitems.Blinded]{Blinded} until the end of the current turn.</p>\n<p><strong>Critical Failure</strong> The target is blinded until the end of the current turn and dazzled for 1 minute.</p>"
        },
        "requirements": {
            "value": ""
        },
        "rules": [],
        "source": {
            "value": ""
        },
        "traits": {
            "custom": "",
            "rarity": {
                "value": "common"
            },
            "value": [
                "concentrate"
            ]
        },
        "trigger": {
            "value": ""
        },
        "weapon": {
            "value": ""
        }
    },
    "effects": [],
    "flags": {},
    "img": "systems/pf2e/icons/actions/Reaction.webp",
    "name": "Overload Vision",
    "type": "action"
}
