{
    "_id": "z8FvdsKEY4lB2L8b",
    "data": {
        "description": {
            "value": "<p>For 1 minute, you gain a Fly speed of 40 feet. The first time each round that you Fly (including to hover in place), you shed burning feathers that deal [[/r {3d4}[fire]]]{3d4 fire damage} to all creatures in a @Template[type:emanation|distance:10] at the end of your movement (<span data-pf2-check=\"reflex\" data-pf2-traits=\"consumable,evocation,fire,magical,potion\" data-pf2-label=\"Phoenix Flask Fire Feathers DC\" data-pf2-dc=\"29\" data-pf2-show-dc=\"all\">basic Reflex</span> save).</p>"
        },
        "duration": {
            "expiry": "turn-start",
            "sustained": false,
            "unit": "minutes",
            "value": 1
        },
        "level": {
            "value": 12
        },
        "rules": [
            {
                "key": "BaseSpeed",
                "selector": "fly-speed",
                "value": 40
            }
        ],
        "source": {
            "value": ""
        },
        "start": {
            "initiative": null,
            "value": 0
        },
        "target": null,
        "tokenIcon": {
            "show": true
        },
        "traits": {
            "custom": "",
            "rarity": {
                "value": "common"
            },
            "value": []
        }
    },
    "effects": [],
    "flags": {},
    "img": "systems/pf2e/icons/default-icons/effect.svg",
    "name": "Equipment Effect: Phoenix Flask",
    "type": "effect"
}
