{
    "_id": "J0YS8mQsQ1BmT6Xv",
    "data": {
        "description": {
            "value": "<p>Each ally in a 30-foot emanation regains 30 Hit Points and gains a +3 status bonus to Fortitude saves until the end of their next turn.</p>"
        },
        "duration": {
            "expiry": "turn-end",
            "sustained": false,
            "unit": "rounds",
            "value": 1
        },
        "level": {
            "value": 18
        },
        "rules": [
            {
                "key": "FlatModifier",
                "selector": "fortitude",
                "type": "status",
                "value": 3
            }
        ],
        "source": {
            "value": ""
        },
        "start": {
            "initiative": null,
            "value": 0
        },
        "target": null,
        "tokenIcon": {
            "show": true
        },
        "traits": {
            "custom": "",
            "rarity": {
                "value": "common"
            },
            "value": []
        }
    },
    "effects": [],
    "flags": {},
    "img": "systems/pf2e/icons/default-icons/effect.svg",
    "name": "Equipment Effect: Emberheart",
    "type": "effect"
}
