{
    "_id": "PFp4Sdp2TDDKD62l",
    "content": "<h1>Thamir (The Silent Blade) [CE]</h1><p><strong>Edicts</strong> Seize any opportunity that would benefit you, solve your problems With Violence, hide your true intentions</p><p><strong>Anathema</strong> Steal from the poor, beg for help or mercy from a fellow worshipper of Thamir</p><p><strong>Follower Alignments</strong> NE, CE</span></p><h2>Devotee Benefits</h2><div><div><strong>Divine Ability</strong> Dexterity or Charisma</div><div><strong>Divine Font</strong> harm</div><div><strong>Divine Skill</strong> Thievery</div><div><strong>Favored Weapon</strong> dagger</div><div><strong>Domains</strong> ambition, confidence, trickery, wealth</div><div><strong>Cleric Spells</strong> 1st: penumbral shroud, 3rd: invisibility sphere, 6th: mislead</div></div>",
    "flags": {},
    "name": "Thamir",
    "permission": {
        "default": 0
    }
}
