{
    "_id": "PrFvU65ewfst69Mp",
    "content": "<p><strong>Deities</strong> @Compendium[pf2e.deities.Besmara]{Besmara}, @Compendium[pf2e.deities.Charon]{Charon}, @Compendium[pf2e.deities.Dagon]{Dagon}, @Compendium[pf2e.deities.Diomazul]{Diomazul}, @Compendium[pf2e.deities.Geryon]{Geryon}, @Compendium[pf2e.deities.Gogunta]{Gogunta}, @Compendium[pf2e.deities.Gozreh]{Gozreh}, @Compendium[pf2e.deities.Hanspur]{Hanspur}, @Compendium[pf2e.deities.Hei Feng]{Hei Feng}, @Compendium[pf2e.deities.Kelizandri]{Kelizandri}, @Compendium[pf2e.deities.Lady Nanbyo]{Lady Nanbyo}, @Compendium[pf2e.deities.Lysianassa]{Lysianassa}, @Compendium[pf2e.deities.Matravash]{Matravash}, @Compendium[pf2e.deities.Naderi]{Naderi}, @Compendium[pf2e.deities.Ragadahn]{Ragadahn}, @Compendium[pf2e.deities.Sobek]{Sobek}, @Compendium[pf2e.deities.Wadjet]{Wadjet}, @Compendium[pf2e.deities.Ylimancha]{Ylimancha}</p><p><strong>Domain Spell</strong> @Compendium[pf2e.spells-srd.Tidal Surge]{Tidal Surge}; <strong>Advanced Domain Spell</strong> @Compendium[pf2e.spells-srd.Downpour]{Downpour}</p><p><span id=\"ctl00_MainContent_DetailedOutput\">You control water and bodies of water.</span></p><p></p>",
    "flags": {},
    "name": "Water Domain",
    "permission": {
        "default": 0
    }
}
