{
    "_id": "17FAYfreumeKbSGr",
    "data": {
        "actionCategory": {
            "value": ""
        },
        "actionType": {
            "value": "passive"
        },
        "actions": {
            "value": null
        },
        "description": {
            "value": "<p>You use your medical training to ameliorate sickness or assuage fears.</p>\n<p>When you use Medicine to @Compendium[pf2e.actionspf2e.Administer First Aid]{Administer First Aid}, instead of Stabilizing a character or Stopping Bleeding, you can reduce an ally's @Compendium[pf2e.conditionitems.Frightened]{Frightened} or @Compendium[pf2e.conditionitems.Sickened]{Sickened} condition by 2, or remove either of those conditions entirely on a critical success. You can remove only one condition at a time.</p>\n<p>The DC for the Medicine check is usually the DC of the effect that caused the condition.</p>"
        },
        "featType": {
            "value": "skill"
        },
        "level": {
            "value": 7
        },
        "prerequisites": {
            "value": [
                {
                    "value": "master in Medicine"
                }
            ]
        },
        "rules": [],
        "source": {
            "value": "Pathfinder Advanced Player's Guide"
        },
        "traits": {
            "custom": "",
            "rarity": {
                "value": "common"
            },
            "value": [
                "general",
                "healing",
                "manipulate",
                "skill"
            ]
        }
    },
    "effects": [],
    "flags": {},
    "img": "systems/pf2e/icons/features/feats/feats.webp",
    "name": "Advanced First Aid",
    "type": "feat"
}
