{
    "_id": "CvMCw6JqvgMPE5uk",
    "data": {
        "actionCategory": {
            "value": ""
        },
        "actionType": {
            "value": "passive"
        },
        "actions": {
            "value": null
        },
        "description": {
            "value": "<p><strong>Requirements</strong> Your eidolon's last action dealt bleed damage to a living creature.</p>\n<p>Your eidolon flies into a frenzy. It gains the benefits of <em>boost eidolon</em> and gains temporary HP equal to your level, but takes a -2 penalty to AC. It can't voluntarily end the frenzy or start another frenzy while in the frenzy.</p>\n<p>The frenzy lasts for 1 minute, after which your eidolon is @Compendium[pf2e.conditionitems.Fatigued]{Fatigued} for 1 minute and can't start another frenzy for 1 minute.</p>"
        },
        "featType": {
            "value": "class"
        },
        "level": {
            "value": 6
        },
        "location": "",
        "prerequisites": {
            "value": [
                {
                    "value": "Bloodletting Claws"
                }
            ]
        },
        "rules": [],
        "source": {
            "value": ""
        },
        "traits": {
            "custom": "",
            "rarity": {
                "value": "common"
            },
            "value": [
                "eidolon",
                "evolution",
                "summoner"
            ]
        }
    },
    "effects": [],
    "flags": {},
    "img": "systems/pf2e/icons/default-icons/feat.svg",
    "name": "Blood Frenzy",
    "type": "feat"
}
