{
    "_id": "YTZhLWtrEnV9Pjf2",
    "data": {
        "actionCategory": {
            "value": ""
        },
        "actionType": {
            "value": "reaction"
        },
        "actions": {
            "value": null
        },
        "description": {
            "value": "<p><strong>Trigger</strong> A foe's Strike reduces you to 0 Hit Points; you were not at 1 Hit Point and you would not be killed.</p>\n<hr />\n<p>Your confidence borders on self-delusion, but it keeps you going against overwhelming odds. Attempt a Deception check against the attack DC of the triggering Strike. You take a penalty to this check equal to twice your wounded value, if any. If the triggering attack was a critical hit, use the result one degree of success worse than what you rolled.</p>\n<hr />\n<p><strong>Critical Success</strong> You avoid being knocked out and remain at 1 Hit Point.</p>\n<p><strong>Success</strong> You avoid being knocked out and remain at 1 Hit Point, but you increase your @Compendium[pf2e.conditionitems.Wounded]{Wounded} value by 1.</p>"
        },
        "featType": {
            "value": "archetype"
        },
        "level": {
            "value": 8
        },
        "prerequisites": {
            "value": [
                {
                    "value": "expert in Deception"
                },
                {
                    "value": "Firebrand Braggart Dedication"
                }
            ]
        },
        "rules": [],
        "source": {
            "value": "Pathfinder Lost Omens: Character Guide"
        },
        "traits": {
            "custom": "",
            "rarity": {
                "value": "common"
            },
            "value": [
                "archetype"
            ]
        }
    },
    "effects": [],
    "flags": {},
    "img": "systems/pf2e/icons/features/feats/feats.webp",
    "name": "Bravo's Determination",
    "type": "feat"
}
