{
    "_id": "hsMcKK92ho39djgI",
    "data": {
        "actionCategory": {
            "value": ""
        },
        "actionType": {
            "value": "passive"
        },
        "actions": {
            "value": null
        },
        "description": {
            "value": "<p>Stories are an experience meant to be shared as a group. When you @Compendium[pf2e.actionspf2e.Spin Tale]{Spin a Tale}, you can designate up to six non-minion allies as the heroes of your story. Each hero, once during the tale, can continue the story in your stead by spending an action to Spin the Tale; if they do, the story continues for another round, as if you had Spun the Tale at the start of your turn. This could allow the story to continue for up to 6 additional rounds, if all possible allies Spin the Tale, though you can continue to Spin the Tale on your own as normal.</p>"
        },
        "featType": {
            "value": "archetype"
        },
        "level": {
            "value": 10
        },
        "location": "",
        "prerequisites": {
            "value": [
                {
                    "value": "Folklorist Dedication"
                }
            ]
        },
        "rules": [],
        "source": {
            "value": "Pathfinder #170: Spoken on the Song Wind"
        },
        "traits": {
            "custom": "",
            "rarity": {
                "value": "common"
            },
            "value": [
                "archetype"
            ]
        }
    },
    "effects": [],
    "flags": {},
    "img": "systems/pf2e/icons/default-icons/feat.svg",
    "name": "Communal Tale",
    "type": "feat"
}
