{
    "_id": "69h9D3syUYLgIPr7",
    "data": {
        "actionCategory": {
            "value": ""
        },
        "actionType": {
            "value": "passive"
        },
        "actions": {
            "value": null
        },
        "description": {
            "value": "<p>You are luckier even than most catfolk. You can trigger @Compendium[pf2e.feats-srd.Cat's Luck]{Cat's Luck} when you fail or critically fail a Fortitude or Will saving throw in addition to Reflex saving throws.</p>\n<p>You still can use Cat's Luck only once per day.</p>"
        },
        "featType": {
            "value": "ancestry"
        },
        "level": {
            "value": 5
        },
        "location": "",
        "prerequisites": {
            "value": [
                {
                    "value": "Cat's Luck"
                }
            ]
        },
        "rules": [],
        "source": {
            "value": "Pathfinder Advanced Player's Guide"
        },
        "traits": {
            "custom": "",
            "rarity": {
                "value": "common"
            },
            "value": [
                "catfolk"
            ]
        }
    },
    "effects": [],
    "flags": {},
    "img": "systems/pf2e/icons/features/feats/feats.webp",
    "name": "Expanded Luck",
    "type": "feat"
}
