{
    "_id": "Stydu9VtrhQZFZxt",
    "data": {
        "actionCategory": {
            "value": ""
        },
        "actionType": {
            "value": "reaction"
        },
        "actions": {
            "value": null
        },
        "description": {
            "value": "<p><strong>Trigger</strong> An ally is about to use an action that requires an attack roll, targeting a creature within your weapon's first range increment.</p>\n<p><strong>Requirements</strong> You're wielding a loaded firearm or crossbow.</p>\n<hr />\n<p>With a skilled flourish of your weapon, you force an enemy to acknowledge you as a threat. Make an attack roll to @Compendium[pf2e.actionspf2e.Aid]{Aid} the triggering attack. If you dealt damage to that enemy with the same weapon since the start of your last turn, you gain a +1 circumstance bonus to this roll.</p>"
        },
        "featType": {
            "value": "class"
        },
        "level": {
            "value": 2
        },
        "location": "",
        "prerequisites": {
            "value": []
        },
        "rules": [],
        "source": {
            "value": ""
        },
        "traits": {
            "custom": "",
            "rarity": {
                "value": "common"
            },
            "value": [
                "gunslinger",
                "visual"
            ]
        }
    },
    "effects": [],
    "flags": {},
    "img": "systems/pf2e/icons/default-icons/feats.webp",
    "name": "Fake Out",
    "type": "feat"
}
