{
    "_id": "hlX7jYoS1s6srZC2",
    "data": {
        "actionCategory": {
            "value": "offensive"
        },
        "actionType": {
            "value": "action"
        },
        "actions": {
            "value": 2
        },
        "description": {
            "value": "<p>You bleed off some electric power from your innovation in the shape of a damaging bolt. Creatures in a @Template[type:line|distance:20] from your innovation take [[/r {3d4}[electricity]]]{3d4 electricity damage}, with a basic Reflex save against your class DC. The electricity damage increases by 1d4 at 8th level and every 2 levels thereafter.</p>\n<p><strong>Unstable Function</strong> You overload and supercharge the voltage even higher. Add the unstable trait to Megavolt. The area increases to a @Template[type:line|distance:60] and the damage increases from d4s to d12s. If you have the breakthrough innovation class feature, you can choose a 60-foot or @Template[type:line|distance:90] for the area when you use an unstable Megavolt; if you also have the revolutionary innovation class feature, you can choose a 60-foot, 90-foot, or @Template[type:line|distance:120].</p>\n<p><strong>Special</strong> If your innovation is a minion, it can take this action rather than you.</p>"
        },
        "featType": {
            "value": "class"
        },
        "level": {
            "value": 6
        },
        "location": "",
        "prerequisites": {
            "value": []
        },
        "rules": [],
        "source": {
            "value": ""
        },
        "traits": {
            "custom": "",
            "rarity": {
                "value": "common"
            },
            "value": [
                "electricity",
                "inventor",
                "manipulate"
            ]
        }
    },
    "effects": [],
    "flags": {},
    "img": "systems/pf2e/icons/default-icons/feats.webp",
    "name": "Megavolt",
    "type": "feat"
}
