{
    "_id": "NN1U8ifiURc0h4Fx",
    "data": {
        "actionCategory": {
            "value": "interaction"
        },
        "actionType": {
            "value": "passive"
        },
        "actions": {
            "value": null
        },
        "description": {
            "value": "<p>Your eyes have adapted to see in all circumstances, even without the assistance of light. You gain @Compendium[pf2e.ancestryfeatures.Darkvision]{Darkvision}, allowing you to see in darkness and dim light just as well as you can in bright light. However, in darkness you see in black and white only.</p>\n<hr />\n<p><strong>Special</strong> You can take this feat only at 1st level, and you can't retrain out of this feat or into this feat.</p>"
        },
        "featType": {
            "value": "ancestry"
        },
        "level": {
            "value": 1
        },
        "location": "",
        "prerequisites": {
            "value": [
                {
                    "value": "low-light vision"
                }
            ]
        },
        "rules": [
            {
                "key": "Sense",
                "label": "PF2E.SensesDarkvision",
                "selector": "darkvision"
            }
        ],
        "source": {
            "value": "Pathfinder Lost Omens: The Mwangi Expanse"
        },
        "traits": {
            "custom": "",
            "rarity": {
                "value": "common"
            },
            "value": [
                "goloma"
            ]
        }
    },
    "effects": [],
    "flags": {},
    "img": "systems/pf2e/icons/default-icons/feats.webp",
    "name": "Pierce the Darkness",
    "type": "feat"
}
