{
    "_id": "XtIPmZ3Ihq5NJHP2",
    "data": {
        "actionCategory": {
            "value": ""
        },
        "actionType": {
            "value": "passive"
        },
        "actions": {
            "value": null
        },
        "description": {
            "value": "<p>Unsuspecting targets are especially vulnerable to your poisons. When you successfully Strike a flat-footed creature with a poisoned weapon or expose a @Compendium[pf2e.conditionitems.Flat-Footed]{Flat-Footed} creature to an inhaled poison, the flat-footed condition also gives that creature a -2 circumstance penalty to its initial save against that poison.</p>"
        },
        "featType": {
            "value": "class"
        },
        "level": {
            "value": 8
        },
        "location": "",
        "prerequisites": {
            "value": []
        },
        "rules": [],
        "source": {
            "value": "Pathfinder Advanced Player's Guide"
        },
        "traits": {
            "custom": "",
            "rarity": {
                "value": "common"
            },
            "value": [
                "alchemist"
            ]
        }
    },
    "effects": [],
    "flags": {},
    "img": "systems/pf2e/icons/features/feats/feats.webp",
    "name": "Pinpoint Poisoner",
    "type": "feat"
}
