{
    "_id": "sk5HspGGnLW8b6bX",
    "data": {
        "actionCategory": {
            "value": ""
        },
        "actionType": {
            "value": "passive"
        },
        "actions": {
            "value": null
        },
        "description": {
            "value": "<p>You've learned how to trigger snares from afar, creating ranged hazards to assail your opponents and allowing you to disarm enemies' snares harmlessly.</p>\n<p>You can Strike a snare to trigger it prematurely. If you crafted the snare, you automatically hit. If someone else crafted it, attempt a ranged Strike against the Crafting DC, triggering the snare only if you hit.</p>"
        },
        "featType": {
            "value": "archetype"
        },
        "level": {
            "value": 6
        },
        "prerequisites": {
            "value": [
                {
                    "value": "Snarecrafter Dedication"
                }
            ]
        },
        "rules": [],
        "source": {
            "value": "Pathfinder Advanced Player's Guide"
        },
        "traits": {
            "custom": "",
            "rarity": {
                "value": "common"
            },
            "value": [
                "archetype"
            ]
        }
    },
    "effects": [],
    "flags": {},
    "img": "systems/pf2e/icons/features/feats/feats.webp",
    "name": "Remote Trigger",
    "type": "feat"
}
