{
    "_id": "R3j6song8sYLY5vG",
    "data": {
        "description": {
            "value": "<p><strong>Critical Success</strong> The public work is restored to its prior construction, and it takes on further qualities, encouraged by the thoughts of the community. For the next week, while a caster is within 60 feet of the site of the ritual, they receive a +1 status bonus to Will saves against emotion effects and a +10-foot status bonus to their Speeds.</p>"
        },
        "duration": {
            "expiry": "turn-start",
            "sustained": false,
            "unit": "unlimited",
            "value": -1
        },
        "level": {
            "value": 1
        },
        "rules": [
            {
                "key": "ToggleProperty",
                "label": "Within 60 feet of a critically succeeded Community Repair Ritual",
                "property": "flags.pf2e.rollOptions.all.community-repair-crit-success"
            },
            {
                "key": "FlatModifier",
                "label": "You're an inspiring artist",
                "predicate": {
                    "all": [
                        "community-repair-crit-success"
                    ]
                },
                "selector": "speed",
                "type": "status",
                "value": 10
            },
            {
                "key": "FlatModifier",
                "label": "Community Repair (Critical Success)",
                "predicate": {
                    "all": [
                        "emotion",
                        "community-repair-crit-success"
                    ]
                },
                "selector": "will",
                "type": "status",
                "value": 1
            }
        ],
        "source": {
            "value": "Pathfinder #170: Spoken on the Song Wind"
        },
        "start": {
            "initiative": null,
            "value": 0
        },
        "target": null,
        "tokenIcon": {
            "show": true
        },
        "traits": {
            "custom": "",
            "rarity": {
                "value": "common"
            },
            "value": []
        }
    },
    "effects": [],
    "flags": {},
    "img": "systems/pf2e/icons/default-icons/effect.svg",
    "name": "Spell Effect: Community Repair (Critical Success)",
    "type": "effect"
}
