{
    "_id": "6tKVMKDdvbp0VhZD",
    "data": {
        "abilities": {
            "cha": {
                "mod": -5
            },
            "con": {
                "mod": 5
            },
            "dex": {
                "mod": 0
            },
            "int": {
                "mod": -5
            },
            "str": {
                "mod": 3
            },
            "wis": {
                "mod": 0
            }
        },
        "attributes": {
            "ac": {
                "details": "",
                "value": 12
            },
            "allSaves": {
                "value": ""
            },
            "hp": {
                "details": "",
                "max": 60,
                "temp": 0,
                "value": 60
            },
            "initiative": {
                "ability": "perception"
            },
            "perception": {
                "value": 6
            },
            "shield": {
                "ac": 0,
                "brokenThreshold": 0,
                "hardness": 0,
                "max": 0,
                "value": 0
            },
            "speed": {
                "otherSpeeds": [
                    {
                        "type": "climb",
                        "value": "10"
                    }
                ],
                "value": "10"
            }
        },
        "details": {
            "alignment": {
                "value": "N"
            },
            "blurb": "",
            "creatureType": "Fungus, Ooze",
            "level": {
                "value": 2
            },
            "privateNotes": "",
            "publicNotes": "<p>A slime mold appears as a mound of earth and detritus covered in a thick layer of fungus that exudes a faint stink of decay. The fungus actually shares a symbiotic relationship with the slime mold, serving as an external digestive system while gaining access to the nutrients it needs. The ooze remains perfectly still until living prey passes within reach, then it lashes out with disgusting pseudopods. With a touch, a slime mold can infect its prey with a foul contagion known as slime rot, a horrific disease that painfully breaks down a victim's flesh. At first, the disease manifests as painful rashes and agonized joints. In the later stages, though, the flesh of the affected creature actually begins to liquefy and run in rivulets as the creature's spores continue to work. Death, when it occurs, swiftly causes the resulting body to split open and release a brand new slime mold.</p>\n<hr />\n<p>Due to their bizarre physical structures and ability to break down and feed on a wide variety of materials, oozes are able to adapt to nearly any climate, especially when assisted by magical or alchemical tinkering. As a result, explorers frequently encounter new and terrifying varieties of these amorphous creatures.</p>",
            "source": {
                "value": "Pathfinder Bestiary 2"
            }
        },
        "resources": {},
        "saves": {
            "fortitude": {
                "saveDetail": "",
                "value": 11
            },
            "reflex": {
                "saveDetail": "",
                "value": 3
            },
            "will": {
                "saveDetail": "",
                "value": 4
            }
        },
        "traits": {
            "attitude": {
                "value": "hostile"
            },
            "ci": [],
            "di": {
                "custom": "",
                "value": [
                    "critical-hits",
                    "mental",
                    "precision",
                    "unconscious",
                    "visual"
                ]
            },
            "dr": [],
            "dv": [],
            "languages": {
                "custom": "",
                "selected": [],
                "value": []
            },
            "rarity": {
                "value": "common"
            },
            "senses": {
                "value": "motion sense 60 feet, no vision"
            },
            "size": {
                "value": "lg"
            },
            "traits": {
                "custom": "",
                "value": [
                    "fungus",
                    "mindless",
                    "ooze"
                ]
            }
        }
    },
    "effects": [],
    "flags": {},
    "img": "systems/pf2e/icons/default-icons/npc.svg",
    "items": [
        {
            "_id": "a3cYrmsIGVchwgtR",
            "data": {
                "attack": {
                    "value": ""
                },
                "attackEffects": {
                    "value": [
                        "slime-rot"
                    ]
                },
                "bonus": {
                    "value": 8
                },
                "damageRolls": {
                    "dfhpqhpsj4z2vuaqiehu": {
                        "damage": "1d8+3",
                        "damageType": "bludgeoning"
                    }
                },
                "description": {
                    "value": ""
                },
                "rules": [],
                "slug": null,
                "source": {
                    "value": ""
                },
                "traits": {
                    "custom": "",
                    "rarity": {
                        "value": "common"
                    },
                    "value": []
                },
                "weaponType": {
                    "value": "melee"
                }
            },
            "effects": [],
            "flags": {},
            "img": "systems/pf2e/icons/default-icons/melee.svg",
            "name": "Pseudopod",
            "sort": 100000,
            "type": "melee"
        },
        {
            "_id": "IieLHPPUSUSDsN8d",
            "data": {
                "actionCategory": {
                    "value": "interaction"
                },
                "actionType": {
                    "value": "passive"
                },
                "actions": {
                    "value": null
                },
                "description": {
                    "value": "<p>A slime mold can sense nearby creatures through vibration and air or water movement.</p>"
                },
                "requirements": {
                    "value": ""
                },
                "rules": [],
                "slug": null,
                "source": {
                    "value": ""
                },
                "traits": {
                    "custom": "",
                    "rarity": {
                        "value": "common"
                    },
                    "value": []
                },
                "trigger": {
                    "value": ""
                },
                "weapon": {
                    "value": ""
                }
            },
            "effects": [],
            "flags": {},
            "img": "systems/pf2e/icons/actions/Passive.webp",
            "name": "Motion Sense 60 feet",
            "sort": 200000,
            "type": "action"
        },
        {
            "_id": "kkVojFishI8AxnVn",
            "data": {
                "actionCategory": {
                    "value": "offensive"
                },
                "actionType": {
                    "value": "passive"
                },
                "actions": {
                    "value": null
                },
                "description": {
                    "value": "<p><strong>Saving Throw</strong> <span data-pf2-check=\"fortitude\" data-pf2-dc=\"18\" data-pf2-traits=\"disease\" data-pf2-label=\"Slime Rot DC\" data-pf2-show-dc=\"gm\">Fortitude</span></p>\n<div data-visibility=\"gm\">\n<p><strong>Onset</strong> [[/br 1d4 #days]]{1d4 days}</p>\n<p><strong>Stage 1</strong> @Compendium[pf2e.conditionitems.Enfeebled]{Enfeebled 1} and @Compendium[pf2e.conditionitems.Sickened]{Sickened 1} (1 day)</p>\n<p><strong>Stage 2</strong> as stage 1 (1 day)</p>\n<p><strong>Stage 3</strong> @Compendium[pf2e.conditionitems.Drained]{Drained 1}, @Compendium[pf2e.conditionitems.Enfeebled]{Enfeebled 2}, and @Compendium[pf2e.conditionitems.Sickened]{Sickened 2} (1 day)</p>\n<p><strong>Stage 4</strong> as stage 3 (1 day)</p>\n<p><strong>Stage 5</strong> @Compendium[pf2e.conditionitems.Drained]{Drained 2} plus @Compendium[pf2e.conditionitems.Unconscious]{Unconscious} (no Perception check to wake up) (1 day)</p>\n<p><strong>Stage 6</strong> dead, and the body erupts to release a new slime mold</p>\n</div>"
                },
                "requirements": {
                    "value": ""
                },
                "rules": [],
                "slug": null,
                "source": {
                    "value": ""
                },
                "traits": {
                    "custom": "",
                    "rarity": {
                        "value": "common"
                    },
                    "value": [
                        "disease"
                    ]
                },
                "trigger": {
                    "value": ""
                },
                "weapon": {
                    "value": ""
                }
            },
            "effects": [],
            "flags": {},
            "img": "systems/pf2e/icons/actions/Passive.webp",
            "name": "Slime Rot",
            "sort": 300000,
            "type": "action"
        },
        {
            "_id": "FWNpp6eGTXrlU85E",
            "data": {
                "description": {
                    "value": ""
                },
                "item": {
                    "value": 0
                },
                "mod": {
                    "value": 7
                },
                "proficient": {
                    "value": 0
                },
                "rules": [],
                "slug": null,
                "source": {
                    "value": ""
                },
                "traits": {
                    "custom": "",
                    "rarity": {
                        "value": "common"
                    },
                    "value": []
                }
            },
            "effects": [],
            "flags": {},
            "img": "systems/pf2e/icons/default-icons/lore.svg",
            "name": "Athletics",
            "sort": 400000,
            "type": "lore"
        },
        {
            "_id": "7iLw2emMidGNxyzJ",
            "data": {
                "description": {
                    "value": ""
                },
                "item": {
                    "value": 0
                },
                "mod": {
                    "value": 6
                },
                "proficient": {
                    "value": 0
                },
                "rules": [
                    {
                        "key": "FlatModifier",
                        "label": "Amid Decaying Plant Matter of Fungus",
                        "predicate": {
                            "any": [
                                "terrain:fungus",
                                "terrain:plant"
                            ]
                        },
                        "selector": "stealth",
                        "value": 2
                    }
                ],
                "slug": null,
                "source": {
                    "value": ""
                },
                "traits": {
                    "custom": "",
                    "rarity": {
                        "value": "common"
                    },
                    "value": []
                },
                "variants": {
                    "0": {
                        "label": "+8 amid decaying plant matter or fungus",
                        "options": "terrain:plant,terrain:fungus"
                    }
                }
            },
            "effects": [],
            "flags": {},
            "img": "systems/pf2e/icons/default-icons/lore.svg",
            "name": "Stealth",
            "sort": 500000,
            "type": "lore"
        }
    ],
    "name": "Slime Mold",
    "token": {
        "disposition": -1,
        "height": 2,
        "img": "systems/pf2e/icons/default-icons/npc.svg",
        "name": "Slime Mold",
        "width": 2
    },
    "type": "npc"
}
