{
    "_id": "5FGuXfg6Ub2hCBG7",
    "data": {
        "abilities": {
            "cha": {
                "mod": -1
            },
            "con": {
                "mod": 4
            },
            "dex": {
                "mod": 2
            },
            "int": {
                "mod": -5
            },
            "str": {
                "mod": 3
            },
            "wis": {
                "mod": 0
            }
        },
        "attributes": {
            "ac": {
                "details": "",
                "value": 18
            },
            "allSaves": {
                "value": ""
            },
            "hp": {
                "details": "",
                "max": 34,
                "temp": 0,
                "value": 34
            },
            "initiative": {
                "ability": "perception"
            },
            "perception": {
                "value": 4
            },
            "shield": {
                "ac": 0,
                "brokenThreshold": 0,
                "hardness": 0,
                "max": 0,
                "value": 0
            },
            "speed": {
                "otherSpeeds": [],
                "value": "5"
            }
        },
        "details": {
            "alignment": {
                "value": "N"
            },
            "blurb": "",
            "creatureType": "Plant",
            "level": {
                "value": 2
            },
            "privateNotes": "",
            "publicNotes": "<p>Made up of thick, green vines with numerous yellow flowers, the yellow musk creeper grows at places where the ground is enriched with spilled blood and corpses, like battlefields and graveyards. An ideal environment for the yellow musk creeper isn't inhabited, but draws occasional humanoid visitors the plant can transform into thralls. The yellow musk creeper enraptures creatures with its bright yellow pollen to bring them close. It then physically alters their brains with its tendrils, implanting a seed in each to turn the creatures into mindless thralls. The yellow musk creeper might try to take over a sleeping creature, but it lacks the faculties to sneak up on anyone, and is likely to wake victims before it can drag itself close enough.</p>\n<p>The plant's pollen can spread far on the wind but quickly becomes too diffuse to cause harm. Wilderness scouts learn to sniff out the distinctive musky scent of the pollen, which stays potent even in harmless quantities. A sprouting creeper is also easy to detect, since it grows from the rotting, messy corpse of a thrall creature.</p>",
            "source": {
                "value": "Pathfinder Bestiary 2"
            }
        },
        "resources": {},
        "saves": {
            "fortitude": {
                "saveDetail": "",
                "value": 10
            },
            "reflex": {
                "saveDetail": "",
                "value": 6
            },
            "will": {
                "saveDetail": "",
                "value": 4
            }
        },
        "traits": {
            "attitude": {
                "value": "hostile"
            },
            "ci": [],
            "di": {
                "custom": "",
                "value": [
                    "mental"
                ]
            },
            "dr": [],
            "dv": [
                {
                    "label": "Fire",
                    "type": "fire",
                    "value": "5"
                }
            ],
            "languages": {
                "custom": "",
                "selected": [],
                "value": []
            },
            "rarity": {
                "value": "common"
            },
            "senses": {
                "value": "tremorsense (imprecise) 30 feet"
            },
            "size": {
                "value": "med"
            },
            "traits": {
                "custom": "",
                "value": [
                    "mindless",
                    "plant"
                ]
            }
        }
    },
    "effects": [],
    "flags": {},
    "img": "systems/pf2e/icons/default-icons/npc.svg",
    "items": [
        {
            "_id": "vAqYhN2FTor4CPFU",
            "data": {
                "attack": {
                    "value": ""
                },
                "attackEffects": {
                    "value": []
                },
                "bonus": {
                    "value": 9
                },
                "damageRolls": {
                    "ngf96s9a8bs6lr3fe2jz": {
                        "damage": "1d10+3",
                        "damageType": "piercing"
                    }
                },
                "description": {
                    "value": ""
                },
                "rules": [],
                "slug": null,
                "source": {
                    "value": ""
                },
                "traits": {
                    "custom": "",
                    "rarity": {
                        "value": "common"
                    },
                    "value": [
                        "reach-10"
                    ]
                },
                "weaponType": {
                    "value": "melee"
                }
            },
            "effects": [],
            "flags": {},
            "img": "systems/pf2e/icons/default-icons/melee.svg",
            "name": "Tendril",
            "sort": 100000,
            "type": "melee"
        },
        {
            "_id": "QjBqDZJ1zOlHWSEG",
            "data": {
                "actionCategory": {
                    "value": "interaction"
                },
                "actionType": {
                    "value": "passive"
                },
                "actions": {
                    "value": null
                },
                "description": {
                    "value": "<p>@Localize[PF2E.NPC.Abilities.Glossary.Tremorsense]</p>"
                },
                "requirements": {
                    "value": ""
                },
                "rules": [],
                "slug": "tremorsense",
                "source": {
                    "value": ""
                },
                "traits": {
                    "custom": "",
                    "rarity": {
                        "value": "common"
                    },
                    "value": []
                },
                "trigger": {
                    "value": ""
                },
                "weapon": {
                    "value": ""
                }
            },
            "effects": [],
            "flags": {
                "core": {
                    "sourceId": "Compendium.pf2e.bestiary-ability-glossary-srd.j2wsK6IsW5yMW1jW"
                }
            },
            "img": "systems/pf2e/icons/actions/Passive.webp",
            "name": "Tremorsense (Imprecise) 30 feet",
            "sort": 200000,
            "type": "action"
        },
        {
            "_id": "fDOQq8mfa2PhlHcF",
            "data": {
                "actionCategory": {
                    "value": "offensive"
                },
                "actionType": {
                    "value": "action"
                },
                "actions": {
                    "value": 3
                },
                "description": {
                    "value": "<p>The creeper bores dozens of tendrils into the brain of a Small, Medium, or Large humanoid creature that's @Compendium[pf2e.conditionitems.Unconscious]{Unconscious}, willing, or @Compendium[pf2e.conditionitems.Fascinated]{Fascinated} by Spray Pollen, and within reach of the creeper's tendrils.</p>\n<p>The creature must succeed at a <span data-pf2-check=\"fortitude\" data-pf2-dc=\"18\" data-pf2-traits=\"manipulate,mental,humanoid\" data-pf2-label=\"Bore into Brain DC\" data-pf2-show-dc=\"gm\">Fortitude</span> save<span data-visibility=\"gm\"> or become @Compendium[pf2e.conditionitems.Stupefied]{Stupefied 1} (@Compendium[pf2e.conditionitems.Stupefied]{Stupefied 2} on a critical failure)</span>.</p>\n<p data-visibility=\"gm\">Subsequent failed saves against Bore into Brain increase the stupefied value. If the creature reaches stupefied 5, it is turned into a yellow musk thrall. Boring into a creature's brain doesn't end fascination caused by Spray Pollen.</p>"
                },
                "requirements": {
                    "value": ""
                },
                "rules": [],
                "slug": null,
                "source": {
                    "value": ""
                },
                "traits": {
                    "custom": "",
                    "rarity": {
                        "value": "common"
                    },
                    "value": [
                        "manipulate",
                        "mental"
                    ]
                },
                "trigger": {
                    "value": ""
                },
                "weapon": {
                    "value": ""
                }
            },
            "effects": [],
            "flags": {},
            "img": "systems/pf2e/icons/actions/ThreeActions.webp",
            "name": "Bore into Brain",
            "sort": 300000,
            "type": "action"
        },
        {
            "_id": "w7tx24OC6vP2T7De",
            "data": {
                "actionCategory": {
                    "value": "offensive"
                },
                "actionType": {
                    "value": "action"
                },
                "actions": {
                    "value": 2
                },
                "description": {
                    "value": "<p>The yellow musk creeper blasts yellow pollen in either a 30-foot line or a 15-foot cone. Each creature in the emanation must attempt a <span data-pf2-check=\"will\" data-pf2-dc=\"20\" data-pf2-traits=\"mental,poison\" data-pf2-label=\"Spray Pollen DC\" data-pf2-show-dc=\"gm\">Will</span> save.</p>\n<div data-visibility=\"gm\">\n<p>Once a creature succeeds at any save against Spray Pollen, it becomes temporarily immune for 24 hours.</p>\n<hr />\n<p><strong>Success</strong> The creature is unaffected.</p>\n<p><strong>Failure</strong> The creature is @Compendium[pf2e.conditionitems.Fascinated]{Fascinated}. For as long as it is fascinated, it must spend each of its actions to move closer to the yellow musk creeper as expediently as possible, while avoiding obvious dangers. If the creature is adjacent to the yellow musk creeper, it stays still and doesn't act. If anyone takes a hostile action against the creature or its allies, the effect ends. Otherwise, the creature can attempt a new save at the end of each of its turns. On a success, the effects end.</p>\n<p><strong>Critical Failure</strong> As failure, but the condition doesn't end automatically if anyone takes a hostile action against the creature or its allies.</p>\n</div>"
                },
                "requirements": {
                    "value": ""
                },
                "rules": [],
                "slug": null,
                "source": {
                    "value": ""
                },
                "traits": {
                    "custom": "",
                    "rarity": {
                        "value": "common"
                    },
                    "value": [
                        "mental",
                        "poison"
                    ]
                },
                "trigger": {
                    "value": ""
                },
                "weapon": {
                    "value": ""
                }
            },
            "effects": [],
            "flags": {},
            "img": "systems/pf2e/icons/actions/TwoActions.webp",
            "name": "Spray Pollen",
            "sort": 400000,
            "type": "action"
        },
        {
            "_id": "C2rNAi8G0Ew8alnn",
            "data": {
                "description": {
                    "value": ""
                },
                "item": {
                    "value": 0
                },
                "mod": {
                    "value": 6
                },
                "proficient": {
                    "value": 0
                },
                "rules": [],
                "slug": null,
                "source": {
                    "value": ""
                },
                "traits": {
                    "custom": "",
                    "rarity": {
                        "value": "common"
                    },
                    "value": []
                }
            },
            "effects": [],
            "flags": {},
            "img": "systems/pf2e/icons/default-icons/lore.svg",
            "name": "Stealth",
            "sort": 500000,
            "type": "lore"
        }
    ],
    "name": "Yellow Musk Creeper",
    "token": {
        "disposition": -1,
        "height": 1,
        "img": "systems/pf2e/icons/default-icons/npc.svg",
        "name": "Yellow Musk Creeper",
        "width": 1
    },
    "type": "npc"
}
