{
    "_id": "S1Msrwi990FE7uMO",
    "data": {
        "ability": {
            "value": ""
        },
        "area": {
            "areaType": "",
            "value": ""
        },
        "areasize": {
            "value": ""
        },
        "autoHeightenLevel": {
            "value": null
        },
        "category": {
            "value": "spell"
        },
        "components": {
            "focus": false,
            "material": false,
            "somatic": true,
            "verbal": true
        },
        "cost": {
            "value": ""
        },
        "damage": {
            "value": {
                "0": {
                    "applyMod": false,
                    "type": {
                        "categories": [],
                        "subtype": "",
                        "value": "negative"
                    },
                    "value": "8d4"
                }
            }
        },
        "description": {
            "value": "<p>With a word and gesture, you cause streams of blood to erupt from the target's mouth, nostrils, ears, or other facial openings and come rushing into your mouth. You deal [[/r {8d4}[negative]]]{8d4 negative damage} to the target.</p>\n<p>If the target takes damage, its blood flows into your mouth. If you're a living creature and don't have negative healing, you're @Compendium[pf2e.conditionitems.Sickened]{Sickened 2}. If you're undead (or living but have negative healing), you can choose to either gain temporary Hit Points equal to half of the negative damage the target takes (after applying resistance and the like) and become @Compendium[pf2e.conditionitems.Quickened]{Quickened} for 1 round, or forgo the temporary Hit Points and become quickened for 1 minute. You can use this extra action only to Step, Stride, or Strike. You lose any remaining temporary Hit Points after 1 minute.</p>\n<hr />\n<p><strong>Heightened (+1)</strong> The damage increases by [[/r {2d4}[negative]]].</p>"
        },
        "duration": {
            "value": ""
        },
        "hasCounteractCheck": {
            "value": false
        },
        "level": {
            "value": 4
        },
        "location": {
            "value": ""
        },
        "materials": {
            "value": ""
        },
        "prepared": {
            "value": ""
        },
        "range": {
            "value": "60 feet"
        },
        "rules": [],
        "save": {
            "basic": "basic",
            "value": "fortitude"
        },
        "scaling": {
            "damage": {
                "0": "2d4"
            },
            "interval": 1
        },
        "school": {
            "value": "necromancy"
        },
        "source": {
            "value": "Pathfinder #165: Eyes of Empty Death"
        },
        "spellType": {
            "value": "save"
        },
        "sustained": {
            "value": false
        },
        "target": {
            "value": "1 living creature"
        },
        "time": {
            "value": "2"
        },
        "traditions": {
            "custom": "",
            "value": [
                "arcane",
                "occult",
                "primal"
            ]
        },
        "traits": {
            "custom": "",
            "rarity": {
                "value": "uncommon"
            },
            "value": [
                "death",
                "negative"
            ]
        }
    },
    "effects": [],
    "flags": {},
    "img": "systems/pf2e/icons/spells/call-the-blood.webp",
    "name": "Call The Blood",
    "type": "spell"
}
