{
    "_id": "Vw2CNwlRRKABsuZi",
    "data": {
        "ability": {
            "value": ""
        },
        "area": {
            "areaType": "emanation",
            "value": 30
        },
        "areasize": {
            "value": "30-foot emanation centered on you"
        },
        "category": {
            "value": "spell"
        },
        "components": {
            "material": false,
            "somatic": true,
            "verbal": true
        },
        "cost": {
            "value": ""
        },
        "damage": {
            "value": {}
        },
        "description": {
            "value": "<p>Your eyes glow with an entrancing radiance that captivates those who meet your gaze. Any creature that ends its turn within the emanation must attempt a Will save.</p>\n<hr />\n<p><strong>Critical Success</strong> The target is unaffected and becomes immune to this particular casting of the spell.</p>\n<p><strong>Success</strong> The target is unaffected.</p>\n<p><strong>Failure</strong> Until the end of its next turn, the target is @Compendium[pf2e.conditionitems.Stupefied]{Stupefied 2} and @Compendium[pf2e.conditionitems.Fascinated]{Fascinated}.</p>\n<p><strong>Critical Failure</strong> Until the end of its next turn, the target is @Compendium[pf2e.conditionitems.Stupefied]{Stupefied 4}, Fascinated, and can't take reactions. In addition, all creatures and objects other than you are @Compendium[pf2e.conditionitems.Concealed]{Concealed} from the target.</p>\n<hr />\n<p>During any round you Sustain the Spell, you can use a single action, which has the manipulate trait, to focus your entrancing eyes on a single creature you can see within 30 feet. This creature must immediately make a Will save against the spell as if it were ending its turn in the emanation. If the creature was already Fascinated by your entrancing eyes before its save, a failed save causes it to be @Compendium[pf2e.conditionitems.Paralyzed]{Paralyzed} for 1 round. You can't use this action to focus on the same creature more than once per round.</p>"
        },
        "duration": {
            "value": "sustained up to 1 minue"
        },
        "hasCounteractCheck": {
            "value": false
        },
        "level": {
            "value": 7
        },
        "location": {
            "value": ""
        },
        "materials": {
            "value": ""
        },
        "prepared": {
            "value": ""
        },
        "primarycheck": {
            "value": ""
        },
        "range": {
            "value": ""
        },
        "rules": [],
        "save": {
            "basic": "",
            "value": "will"
        },
        "school": {
            "value": "enchantment"
        },
        "secondarycasters": {
            "value": ""
        },
        "secondarycheck": {
            "value": ""
        },
        "source": {
            "value": "Pathfinder #154: Siege of the Dinosaurs"
        },
        "spellType": {
            "value": "save"
        },
        "sustained": {
            "value": false
        },
        "target": {
            "value": ""
        },
        "time": {
            "value": "2"
        },
        "traditions": {
            "custom": "",
            "value": [
                "arcane"
            ]
        },
        "traits": {
            "custom": "",
            "rarity": {
                "value": "uncommon"
            },
            "value": [
                "mental",
                "visual"
            ]
        }
    },
    "effects": [],
    "flags": {},
    "img": "systems/pf2e/icons/spells/entrancing-eyes.webp",
    "name": "Entrancing Eyes",
    "type": "spell"
}
