{
    "_id": "qCmihBL0G0G5ExPF",
    "data": {
        "ability": {
            "value": ""
        },
        "area": {
            "areaType": "burst",
            "value": "60"
        },
        "autoHeightenLevel": {
            "value": null
        },
        "category": {
            "value": "spell"
        },
        "components": {
            "focus": false,
            "material": true,
            "somatic": true,
            "verbal": true
        },
        "cost": {
            "value": ""
        },
        "damage": {
            "value": {}
        },
        "description": {
            "value": "<p>You call forth an unseen servant and task it to perform a specific chore repeatedly. Choose a basic instruction, such as sweeping the floor, or picking up all objects from the floor and putting them in a designated bin. The servant performs the task over and over again throughout the duration, though it can't ever leave the spell's area.</p>\n<p>The servant isn't a minion, and you don't need to Sustain the Spell in order for it to continue to act. However, it acts on its own time, and thus can't accomplish anything useful during an encounter, even if an encounter happens within the spell's range.</p>\n<p>Tasks that rely on timing, discretion, or significant manual dexterity are doomed to failure. For instance, a servant tasked to pick objects off the floor won't discriminate between trash, misplaced treasure, or objects that are supposed to be on the floor, like a mousetrap.</p>"
        },
        "duration": {
            "value": "until your next daily preparations"
        },
        "hasCounteractCheck": {
            "value": false
        },
        "level": {
            "value": 2
        },
        "location": {
            "value": ""
        },
        "materials": {
            "value": ""
        },
        "range": {
            "value": "120 feet"
        },
        "rules": [],
        "save": {
            "basic": "",
            "value": ""
        },
        "school": {
            "value": "conjuration"
        },
        "source": {
            "value": "Pathfinder Secrets of Magic"
        },
        "spellType": {
            "value": "utility"
        },
        "sustained": {
            "value": false
        },
        "target": {
            "value": ""
        },
        "time": {
            "value": "1 minute"
        },
        "traditions": {
            "custom": "",
            "value": [
                "arcane",
                "occult"
            ]
        },
        "traits": {
            "custom": "",
            "rarity": {
                "value": "common"
            },
            "value": []
        }
    },
    "effects": [],
    "flags": {},
    "img": "systems/pf2e/icons/spells/persistent-servant.webp",
    "name": "Persistent Servant",
    "type": "spell"
}
