{
    "_id": "Q1OWufw6dUiY8yEI",
    "data": {
        "ability": {
            "value": ""
        },
        "area": {
            "areaType": "emanation",
            "value": "10"
        },
        "autoHeightenLevel": {
            "value": null
        },
        "category": {
            "value": "focus"
        },
        "components": {
            "material": false,
            "somatic": true,
            "verbal": true
        },
        "cost": {
            "value": ""
        },
        "damage": {
            "value": {
                "0": {
                    "type": {
                        "categories": [],
                        "value": "fire"
                    },
                    "value": "3d6"
                }
            }
        },
        "description": {
            "value": "<p>You encircle yourself in an aura of protective flames. Each creature that hits you with an unarmed attack, Grapples you, or otherwise touches you takes [[/r {3}[fire]]]{3 fire damage}. When you Cast the Spell and the first time you sustain it each round, each creature in the area takes [[/r {3d6}[fire]]]{3d6 fire damage} (basic Reflex save).</p>\n<hr />\n<p><strong>Heightened (+1)</strong> The damage caused by touching you increases by 1, and the fire damage when you Cast the Spell or sustain it increases by 1d6.</p>"
        },
        "duration": {
            "value": "sustained up to 1 minute"
        },
        "hasCounteractCheck": {
            "value": false
        },
        "level": {
            "value": 3
        },
        "location": {
            "value": ""
        },
        "materials": {
            "value": ""
        },
        "prepared": {
            "value": ""
        },
        "range": {
            "value": ""
        },
        "rules": [],
        "save": {
            "basic": "basic",
            "value": "reflex"
        },
        "scaling": {
            "damage": {
                "0": "1d6"
            },
            "interval": 1
        },
        "school": {
            "value": "evocation"
        },
        "source": {
            "value": "Pathfinder #168: King of the Mountain"
        },
        "spellType": {
            "value": "save"
        },
        "sustained": {
            "value": false
        },
        "target": {
            "value": ""
        },
        "time": {
            "value": "2"
        },
        "traditions": {
            "value": []
        },
        "traits": {
            "custom": "",
            "rarity": {
                "value": "uncommon"
            },
            "value": [
                "fire",
                "sorcerer"
            ]
        }
    },
    "effects": [],
    "flags": {},
    "img": "systems/pf2e/icons/default-icons/spell.svg",
    "name": "Shroud of Flame",
    "type": "spell"
}
