{
    "_id": "RKz7Z5pefXKiv9JE",
    "data": {
        "actionCategory": {
            "value": ""
        },
        "actionType": {
            "value": "passive"
        },
        "actions": {
            "value": null
        },
        "description": {
            "value": "<p>You are descended from a janni or otherwise embody a dichotomy of opposing elemental planar forces. You gain the suli trait, in addition to the traits from your ancestry. You also gain @Compendium[pf2e.ancestryfeatures.Low-Light Vision]{Low-Light Vision}, or you gain @Compendium[pf2e.ancestryfeatures.Darkvision]{Darkvision} if your ancestry already has low-light vision. You can choose from suli feats and feats from your ancestry whenever you gain an ancestry feat.</p>\n<hr />\n<p>GENIEKIN FEATS</p>\n<p>At 1st level, you gain one ancestry feat, and you gain an additional ancestry feat every 4 levels thereafter (at 5th, 9th, 13th, and 17th levels). As a geniekin you can choose from among the following ancestry feats, in addition to those available to your specific geniekin heritage and your ancestry.</p>"
        },
        "featType": {
            "value": "heritage"
        },
        "level": {
            "value": 0
        },
        "location": "",
        "prerequisites": {
            "value": []
        },
        "rules": [],
        "source": {
            "value": "Pathfinder Lost Omens: Ancestry Guide"
        },
        "traits": {
            "custom": "",
            "rarity": {
                "value": "uncommon"
            },
            "value": [
                "geniekin",
                "suli",
                "versatile heritage"
            ]
        }
    },
    "effects": [],
    "flags": {},
    "img": "systems/pf2e/icons/default-icons/feat.svg",
    "name": "Suli",
    "type": "feat"
}
