{
    "_id": "VYfpTUuXJM3iBOz0",
    "data": {
        "actionCategory": {
            "value": ""
        },
        "actionType": {
            "value": "passive"
        },
        "actions": {
            "value": null
        },
        "description": {
            "value": "<p>You can change your skin color to blend in with your surroundings, making minor shifts with a single action and dramatic changes over the course of an hour.</p>\n<p>When you're in an area where your coloration is roughly similar to the environment (for instance, forest green in a forest), you can use the minor, single action application of this ability to make localized changes that help you blend into your surroundings, gaining a +2 circumstance bonus to Stealth checks until your surroundings change in coloration or pattern.</p>"
        },
        "featType": {
            "value": "heritage"
        },
        "level": {
            "value": 0
        },
        "location": "",
        "prerequisites": {
            "value": []
        },
        "rules": [
            {
                "key": "FlatModifier",
                "label": "Unseen Lizardfolk (coloration matches environment)",
                "predicate": {
                    "all": [
                        "coloration-matches"
                    ]
                },
                "selector": "stealth",
                "type": "circumstance",
                "value": 2
            }
        ],
        "source": {
            "value": ""
        },
        "traits": {
            "custom": "",
            "rarity": {
                "value": "common"
            },
            "value": [
                "lizardfolk"
            ]
        }
    },
    "effects": [],
    "flags": {},
    "img": "systems/pf2e/icons/features/ancestry/unseen-lizardfolk.webp",
    "name": "Unseen Lizardfolk",
    "type": "feat"
}
