{
    "_id": "l8WNWPFUdxcqEG6e",
    "data": {
        "actionCategory": {
            "value": ""
        },
        "actionType": {
            "value": "passive"
        },
        "actions": {
            "value": null
        },
        "description": {
            "value": "<p><strong>[Faction]</strong></p>\n<p><strong>Prerequisites</strong>: Tier 2 with the Envoy's Alliance, @Compendium[pf2e.pathfinder-society-boons.Envoy's Alliance Champion]{Envoy's Alliance Champion}</p>\n<p><strong>Cost</strong>: 8 Fame</p>\n<p><strong>Effect</strong>: While you have this boon slotted, you gain Reputation with the faction after a successfully completed adventure, as detailed in its Primary and Secondary Objectives.</p>\n<p>In addition, when you slot this boon, you gain one additional boon slot during the adventure. You can use this additional boon slot only for a boon whose prerequisite includes an Envoys' Alliance faction tier of 1, 2, or 3.</p>\n<p><strong>Normal</strong>: A character gains no Reputation unless they have a faction boon slotted.</p>"
        },
        "featType": {
            "value": "pfsboon"
        },
        "level": {
            "value": 0
        },
        "prerequisites": {
            "value": []
        },
        "rules": [],
        "source": {
            "value": ""
        },
        "traits": {
            "custom": "",
            "rarity": {
                "value": "common"
            },
            "value": []
        }
    },
    "effects": [],
    "flags": {},
    "img": "systems/pf2e/icons/default-icons/mystery-man.webp",
    "name": "Envoy's Alliance Champion, Improved",
    "type": "feat"
}
