{
    "_id": "0CqkYRFUlb0tB9li",
    "data": {
        "actionCategory": {
            "value": ""
        },
        "actionType": {
            "value": "passive"
        },
        "actions": {
            "value": null
        },
        "description": {
            "value": "<p><strong>[Advanced]</strong><strong>[Limited Use] □</strong></p>\n<p><strong>Effect</strong>: You have navigated the courts of Ekkeshikaar, honing your skills as a diplomat and researcher. You may check the box next to this boon at the beginning of an adventure to become trained in Diplomacy and Society for the duration of that adventure. If you are already trained in one of these skills, you instead become an expert. If your proficiency level is higher than expert in either of these skills, you treat any critical failure rolled with that skill as a failure and any failure as a success for the duration of the adventure.</p>"
        },
        "featType": {
            "value": "pfsboon"
        },
        "level": {
            "value": 0
        },
        "prerequisites": {
            "value": []
        },
        "rules": [],
        "source": {
            "value": ""
        },
        "traits": {
            "custom": "",
            "rarity": {
                "value": "common"
            },
            "value": []
        }
    },
    "effects": [],
    "flags": {},
    "img": "systems/pf2e/icons/default-icons/mystery-man.webp",
    "name": "S1-23 - Seasoned Diplomat",
    "type": "feat"
}
