{
    "_id": "CKyGNdBL8Qt4ysKt",
    "data": {
        "actionCategory": {
            "value": ""
        },
        "actionType": {
            "value": "passive"
        },
        "actions": {
            "value": null
        },
        "description": {
            "value": "<p>You've come into contact with cyclopes or their cultural artifacts, and you get the sense that you could pick up their language with a bit of study. You gain access to the Cyclops language, allowing you to learn Cyclops the next time you gain a language (such as through the Multilingual skill feat).</p>\n<p><strong>SPECIAL</strong> This boon applies to all of your Pathfinder Society (second edition) characters.</p>"
        },
        "featType": {
            "value": "pfsboon"
        },
        "identified": {
            "value": true
        },
        "level": {
            "value": 0
        },
        "prerequisites": {
            "value": []
        },
        "rules": [],
        "source": {
            "value": ""
        },
        "traits": {
            "custom": "",
            "rarity": {
                "value": "common"
            },
            "value": []
        }
    },
    "effects": [],
    "flags": {},
    "img": "systems/pf2e/icons/default-icons/mystery-man.webp",
    "name": "S2-03 - Fluent in Cyclops",
    "type": "feat"
}
