{
    "_id": "Oilfs8Atv2LjAsUS",
    "data": {
        "abilities": {
            "cha": {
                "mod": -2
            },
            "con": {
                "mod": 1
            },
            "dex": {
                "mod": 4
            },
            "int": {
                "mod": -4
            },
            "str": {
                "mod": 2
            },
            "wis": {
                "mod": 2
            }
        },
        "attributes": {
            "ac": {
                "details": "",
                "value": 15
            },
            "allSaves": {
                "value": ""
            },
            "hp": {
                "details": "",
                "max": 24,
                "temp": 0,
                "value": 24
            },
            "initiative": {
                "ability": "perception"
            },
            "perception": {
                "value": 7
            },
            "shield": {
                "ac": 0,
                "brokenThreshold": 0,
                "hardness": 0,
                "max": 0,
                "value": 0
            },
            "speed": {
                "otherSpeeds": [],
                "value": "35"
            }
        },
        "details": {
            "alignment": {
                "value": "N"
            },
            "blurb": "",
            "creatureType": "Animal",
            "level": {
                "value": 1
            },
            "privateNotes": "",
            "publicNotes": "<p>Wolves live and hunt in packs, which, contrary to popular belief, are not led by the strongest in the group, but typically consist of a mated pair, their pups, and juvenile offspring from previous mating seasons. Offspring generally leave their parents' pack upon reaching maturity, at which point they seek out mates of their own to go form their own packs elsewhere.</p>\n<p>Humanoids are not traditionally viewed as prey animals by wolves, but extraordinary circumstances can lead these animals to attack people, especially in winter months and other situations where traditional prey is scarce. Some beings, such as powerful vampires, can call upon wolves to aid them in combat.</p>\n<hr /><p>Wolves roam forests, hills, and other wild lands, where they hunt in packs to beleaguer and surround their prey before going in for the kill. Like most predatory animals, wolves prefer to attack the weakest or most vulnerable prey they can find.</p>",
            "source": {
                "value": "Pathfinder Bestiary"
            }
        },
        "resources": {},
        "saves": {
            "fortitude": {
                "saveDetail": "",
                "value": 6
            },
            "reflex": {
                "saveDetail": "",
                "value": 9
            },
            "will": {
                "saveDetail": "",
                "value": 5
            }
        },
        "traits": {
            "ci": [],
            "di": {
                "custom": "",
                "value": []
            },
            "dr": [],
            "dv": [],
            "languages": {
                "custom": "",
                "selected": [],
                "value": []
            },
            "rarity": {
                "value": "common"
            },
            "senses": {
                "value": "low-light vision, scent (imprecise) 30 feet"
            },
            "size": {
                "value": "med"
            },
            "traits": {
                "custom": "",
                "value": [
                    "animal"
                ]
            }
        }
    },
    "effects": [],
    "flags": {},
    "img": "systems/pf2e/icons/default-icons/npc.svg",
    "items": [
        {
            "_id": "NX0owCPUZbsVJ4az",
            "data": {
                "attack": {
                    "value": ""
                },
                "attackEffects": {
                    "custom": "",
                    "value": [
                        "knockdown"
                    ]
                },
                "bonus": {
                    "value": 9
                },
                "damageRolls": {
                    "d9dz0n8l5x20aqoksiqt": {
                        "damage": "1d6+2",
                        "damageType": "piercing"
                    }
                },
                "description": {
                    "value": ""
                },
                "rules": [],
                "slug": null,
                "source": {
                    "value": ""
                },
                "traits": {
                    "custom": "",
                    "rarity": {
                        "value": "common"
                    },
                    "value": []
                },
                "weaponType": {
                    "value": "melee"
                }
            },
            "effects": [],
            "flags": {},
            "img": "systems/pf2e/icons/default-icons/melee.svg",
            "name": "Jaws",
            "sort": 100000,
            "type": "melee"
        },
        {
            "_id": "XoVUktlx9ShE4qSg",
            "data": {
                "actionCategory": {
                    "value": "interaction"
                },
                "actionType": {
                    "value": "passive"
                },
                "actions": {
                    "value": null
                },
                "description": {
                    "value": "<p>@Localize[PF2E.NPC.Abilities.Glossary.LowLightVision]</p>"
                },
                "requirements": {
                    "value": ""
                },
                "rules": [],
                "slug": "low-light-vision",
                "source": {
                    "value": ""
                },
                "traits": {
                    "custom": "",
                    "rarity": {
                        "value": "common"
                    },
                    "value": []
                },
                "trigger": {
                    "value": ""
                },
                "weapon": {
                    "value": ""
                }
            },
            "effects": [],
            "flags": {
                "core": {
                    "sourceId": "Compendium.pf2e.bestiary-ability-glossary-srd.fFu2sZz4KB01fVRc"
                }
            },
            "img": "systems/pf2e/icons/actions/Passive.webp",
            "name": "Low-Light Vision",
            "sort": 200000,
            "type": "action"
        },
        {
            "_id": "B9UWVfb5u2XQEibf",
            "data": {
                "actionCategory": {
                    "value": "interaction"
                },
                "actionType": {
                    "value": "passive"
                },
                "actions": {
                    "value": null
                },
                "description": {
                    "value": "<p>@Localize[PF2E.NPC.Abilities.Glossary.Scent]</p>"
                },
                "requirements": {
                    "value": ""
                },
                "rules": [],
                "slug": "scent",
                "source": {
                    "value": ""
                },
                "traits": {
                    "custom": "",
                    "rarity": {
                        "value": "common"
                    },
                    "value": []
                },
                "trigger": {
                    "value": ""
                },
                "weapon": {
                    "value": ""
                }
            },
            "effects": [],
            "flags": {
                "core": {
                    "sourceId": "Compendium.pf2e.bestiary-ability-glossary-srd.rqfnQ5VHT5hxm25r"
                }
            },
            "img": "systems/pf2e/icons/actions/Passive.webp",
            "name": "Scent (Imprecise) 30 feet",
            "sort": 300000,
            "type": "action"
        },
        {
            "_id": "j2himHHcUdUYKnny",
            "data": {
                "actionCategory": {
                    "value": "offensive"
                },
                "actionType": {
                    "value": "action"
                },
                "actions": {
                    "value": 1
                },
                "description": {
                    "value": "<p>@Localize[PF2E.NPC.Abilities.Glossary.Knockdown]</p>"
                },
                "requirements": {
                    "value": ""
                },
                "rules": [],
                "slug": "knockdown",
                "source": {
                    "value": ""
                },
                "traits": {
                    "custom": "",
                    "rarity": {
                        "value": "common"
                    },
                    "value": []
                },
                "trigger": {
                    "value": ""
                },
                "weapon": {
                    "value": ""
                }
            },
            "effects": [],
            "flags": {
                "core": {
                    "sourceId": "Compendium.pf2e.bestiary-ability-glossary-srd.BCLvAx4Pz4MLa2pu"
                }
            },
            "img": "systems/pf2e/icons/actions/OneAction.webp",
            "name": "Knockdown",
            "sort": 400000,
            "type": "action"
        },
        {
            "_id": "GhRRqxvK6T21zheo",
            "data": {
                "actionCategory": {
                    "value": "offensive"
                },
                "actionType": {
                    "value": "passive"
                },
                "actions": {
                    "value": null
                },
                "description": {
                    "value": "<p>The wolf's Strikes deal [[/r {1d4}]]{1d4 extra damage} to creatures within reach of at least two of the wolf's allies.</p>"
                },
                "requirements": {
                    "value": ""
                },
                "rules": [
                    {
                        "key": "ToggleProperty",
                        "property": "flags.pf2e.rollOptions.damage-roll.pack-attack"
                    },
                    {
                        "damageType": "piercing",
                        "diceNumber": 1,
                        "dieSize": "d4",
                        "key": "DamageDice",
                        "predicate": {
                            "all": [
                                "pack-attack"
                            ]
                        },
                        "selector": "damage"
                    }
                ],
                "slug": null,
                "source": {
                    "value": ""
                },
                "traits": {
                    "custom": "",
                    "rarity": {
                        "value": "common"
                    },
                    "value": []
                },
                "trigger": {
                    "value": ""
                },
                "weapon": {
                    "value": ""
                }
            },
            "effects": [],
            "flags": {},
            "img": "systems/pf2e/icons/actions/Passive.webp",
            "name": "Pack Attack",
            "sort": 500000,
            "type": "action"
        },
        {
            "_id": "4chElHxgWYfSZPG9",
            "data": {
                "description": {
                    "value": ""
                },
                "item": {
                    "value": 0
                },
                "mod": {
                    "value": 7
                },
                "proficient": {
                    "value": 0
                },
                "rules": [],
                "slug": null,
                "source": {
                    "value": ""
                },
                "traits": {
                    "custom": "",
                    "rarity": {
                        "value": "common"
                    },
                    "value": []
                }
            },
            "effects": [],
            "flags": {},
            "img": "systems/pf2e/icons/default-icons/lore.svg",
            "name": "Acrobatics",
            "sort": 600000,
            "type": "lore"
        },
        {
            "_id": "LoiARuDnD1OXi7Gq",
            "data": {
                "description": {
                    "value": ""
                },
                "item": {
                    "value": 0
                },
                "mod": {
                    "value": 5
                },
                "proficient": {
                    "value": 0
                },
                "rules": [],
                "slug": null,
                "source": {
                    "value": ""
                },
                "traits": {
                    "custom": "",
                    "rarity": {
                        "value": "common"
                    },
                    "value": []
                }
            },
            "effects": [],
            "flags": {},
            "img": "systems/pf2e/icons/default-icons/lore.svg",
            "name": "Athletics",
            "sort": 700000,
            "type": "lore"
        },
        {
            "_id": "gbBnQhXZKvXNuk9i",
            "data": {
                "description": {
                    "value": ""
                },
                "item": {
                    "value": 0
                },
                "mod": {
                    "value": 7
                },
                "proficient": {
                    "value": 0
                },
                "rules": [],
                "slug": null,
                "source": {
                    "value": ""
                },
                "traits": {
                    "custom": "",
                    "rarity": {
                        "value": "common"
                    },
                    "value": []
                }
            },
            "effects": [],
            "flags": {},
            "img": "systems/pf2e/icons/default-icons/lore.svg",
            "name": "Stealth",
            "sort": 800000,
            "type": "lore"
        },
        {
            "_id": "7Tb8i5xvJI49ytgM",
            "data": {
                "description": {
                    "value": ""
                },
                "item": {
                    "value": 0
                },
                "mod": {
                    "value": 7
                },
                "proficient": {
                    "value": 0
                },
                "rules": [],
                "slug": null,
                "source": {
                    "value": ""
                },
                "traits": {
                    "custom": "",
                    "rarity": {
                        "value": "common"
                    },
                    "value": []
                }
            },
            "effects": [],
            "flags": {},
            "img": "systems/pf2e/icons/default-icons/lore.svg",
            "name": "Survival",
            "sort": 900000,
            "type": "lore"
        }
    ],
    "name": "Wolf",
    "token": {
        "disposition": -1,
        "height": 1,
        "img": "systems/pf2e/icons/default-icons/npc.svg",
        "name": "Wolf",
        "width": 1
    },
    "type": "npc"
}
